{
    "lang": "arag",
    "year": 2021,
    "month": 8,
    "day": 30,
    "title": "30 d'agosto de 1984",
    "body": " La nau espacial Discovery despega per primer vegada. Va alcanzar a fer 39 misions pa la NASA",
    "eventYear": "1984",
    "image": "https://calendario-cientifico-escolar.github.io/images/personajes/242.png"
}