{
    "lang": "arag",
    "year": 2021,
    "month": 8,
    "day": 6,
    "title": "6 d'agosto de 1991",
    "body": " Lo scientifico d'a computaci\u00f3n Tim Berners-Lee mete en linia lo primer servidor web. Este servidor se trobaba en a Organizaci\u00f3n Europea pa la Investigaci\u00f3n Nucleyar (CERN)",
    "eventYear": "1991",
    "image": "https://calendario-cientifico-escolar.github.io/images/personajes/218.png"
}