{
    "lang": "arag",
    "year": 2021,
    "month": 7,
    "day": 15,
    "title": "15 de chuliol de 1799",
    "body": " Mientres la campanya de Napole\u00f3n en Echipto, se descubre la piedra de Rosetta. Esta piedra ye inscrita en griego, hieroglifico y demotico, y ye la clau que permite de descifrar los hieroglificos echipcios",
    "eventYear": "1799",
    "image": "https://calendario-cientifico-escolar.github.io/images/personajes/196.png"
}