{
    "lang": "arag",
    "year": 2021,
    "month": 7,
    "day": 23,
    "title": "23 de chuliol de 2020",
    "body": " Un estudio con participaci\u00f3n d'o CSIC revela una reducci\u00f3n d'o 50% d'o rudio sismico chenerau per l'actividat humana. Esta reducci\u00f3n se produci\u00f3 como conseq\u00fcencia d'as midas de confinamiento per la pandemia d'o coronavirus",
    "eventYear": "2020",
    "image": "https://calendario-cientifico-escolar.github.io/images/personajes/204.png"
}