{
    "lang": "arag",
    "year": 2021,
    "month": 7,
    "day": 31,
    "title": "31 de chuliol de 1923",
    "body": " Naixe la quimica Stephanie Kwolek. Sintetiz\u00f3 per primer vegada lo Kevlar, un polimero que se fa servir en a fabricaci\u00f3n de pneumaticos, velas nauticas u achustadors antibalas per la suya liuchereza y extraordinaria resistencia",
    "eventYear": "1923",
    "image": "https://calendario-cientifico-escolar.github.io/images/personajes/212.png"
}