{
    "lang": "gal",
    "year": 2021,
    "month": 8,
    "day": 17,
    "title": "17 de agosto de 1737",
    "body": " Naceu o agr\u00f3nomo, hixienista e nutricionista Antoine Parmentier. Grazas ao seu traballo, anul\u00e1ronse as leis que prohib\u00edan o cultivo da pataca. Ata daquela, case todos os pa\u00edses europeos consideraban que a pataca non era comestible",
    "eventYear": "1737",
    "image": "https://calendario-cientifico-escolar.github.io/images/personajes/229.png"
}