{
    "lang": "gal",
    "year": 2021,
    "month": 8,
    "day": 4,
    "title": "4 de agosto de 1932",
    "body": " Naceu a inform\u00e1tica Frances Elizabeth Allen. En 2006 converteuse na primeira muller ga\u00f1adora do Premio Turing",
    "eventYear": "1932",
    "image": "https://calendario-cientifico-escolar.github.io/images/personajes/216.png"
}