{
    "lang": "gal",
    "year": 2021,
    "month": 7,
    "day": 21,
    "title": "21 de xullo de 2013",
    "body": " Desenvolveuse unha pel electr\u00f3nica sensible e flexible que imita a pel humana real. Esta pel pode detectar e responder a diferentes niveis de presi\u00f3n",
    "eventYear": "2013",
    "image": "https://calendario-cientifico-escolar.github.io/images/personajes/202.png"
}