{
    "lang": "gal",
    "year": 2021,
    "month": 7,
    "day": 28,
    "title": "28 de xullo de 1635",
    "body": " Naceu o cient\u00edfico ingl\u00e9s Robert Hooke. Foi a primeira persoa en describir a vida microsc\u00f3pica no seu libro Micrographia. Este libro cont\u00e9n por primeira vez a palabra c\u00e9lula",
    "eventYear": "1635",
    "image": "https://calendario-cientifico-escolar.github.io/images/personajes/209.png"
}