{
    "lang": "gal",
    "year": 2021,
    "month": 7,
    "day": 29,
    "title": "29 de xullo de 1796",
    "body": " Naceu o inventor Walter Hunt. \u00c9 co\u00f1ecido por ter creado o imperdible",
    "eventYear": "1796",
    "image": "https://calendario-cientifico-escolar.github.io/images/personajes/210.png"
}