{
    "lang": "gal",
    "year": 2021,
    "month": 11,
    "day": 12,
    "title": "12 de novembro de 1919",
    "body": " Naceu a bi\u00f3loga molecular Grete Kellenberger-Gujer. O seu prestixio deriva dos seus achados sobre a recombinaci\u00f3n xen\u00e9tica e a restrici\u00f3n do ADN",
    "eventYear": "1919",
    "image": "https://calendario-cientifico-escolar.github.io/images/personajes/316.png"
}