{
    "lang": "astu",
    "year": 2021,
    "month": 11,
    "day": 13,
    "title": "13 de payares de 2013",
    "body": " La NASA public\u00f3 un videu que presenta a Marte como podr\u00eda ser va 4.000 millones d\u2019a\u00f1os, con cielos azules y agua",
    "eventYear": "2013",
    "image": "https://calendario-cientifico-escolar.github.io/images/personajes/317.png"
}