{
    "lang": "eus",
    "year": 2021,
    "month": 11,
    "day": 13,
    "title": "2013/11/13",
    "body": " NASAk bideo bat aurkeztu zuen, orain 4.000 milioi urte Marte, zeru urdinekin eta urarekin, nola izan zitekeen erakusteko",
    "eventYear": "2013",
    "image": "https://calendario-cientifico-escolar.github.io/images/personajes/317.png"
}