{
    "lang": "es",
    "year": 2021,
    "month": 11,
    "day": 16,
    "title": "16 de noviembre de 1940",
    "body": " Naci\u00f3 la f\u00edsica Mar\u00eda Josefa Yzuel Gim\u00e9nez. Su investigaci\u00f3n se ha centrado en el campo de la \u00f3ptica y ha recibido numerosas distinciones a nivel nacional e internacional",
    "eventYear": "1940",
    "image": "https://calendario-cientifico-escolar.github.io/images/personajes/320.png"
}