{
    "lang": "gal",
    "year": 2021,
    "month": 11,
    "day": 17,
    "title": "17 de novembro de 2015",
    "body": " Un total de 195 estados ratificou a creaci\u00f3n dos xeoparques mundiais da UNESCO. Tr\u00e1tase de lugares cun patrimonio xeol\u00f3xico de relevancia internacional que se empregan para promover o desenvolvemento sostible das comunidades que habitan neles",
    "eventYear": "2015",
    "image": "https://calendario-cientifico-escolar.github.io/images/personajes/321.png"
}