{
    "lang": "gal",
    "year": 2021,
    "month": 11,
    "day": 22,
    "title": "22 de novembro de 2013",
    "body": " Un equipo de investigaci\u00f3n da Universidade de B\u00f6nn descubriu un xene de orixe neandertal en persoas actuais. Tr\u00e1tase dun xene da inmunidade que permite reco\u00f1ecer intrusos perigosos e defenderse ante eles mediante unha resposta inmune",
    "eventYear": "2013",
    "image": "https://calendario-cientifico-escolar.github.io/images/personajes/326.png"
}