{
    "lang": "gal",
    "year": 2021,
    "month": 11,
    "day": 26,
    "title": "26 de novembro de 1857",
    "body": " Naceu o ling\u00fcista Ferdinand de Saussure. \u00c9 reco\u00f1ecido como pioneiro da ling\u00fc\u00edstica cient\u00edfica",
    "eventYear": "1857",
    "image": "https://calendario-cientifico-escolar.github.io/images/personajes/330.png"
}