{
    "lang": "astu",
    "year": 2021,
    "month": 11,
    "day": 2,
    "title": "2 de payares de 1919",
    "body": " Naci\u00f3 Marie Morisawa, una de les fundadores de la xeomorfolox\u00eda ambiental. La xeomorfolox\u00eda axunta xeograf\u00eda y xeolox\u00eda pa estudiar les formes de la superficie terrestre y entender la so formaci\u00f3n y comportamientu g\u00fcei",
    "eventYear": "1919",
    "image": "https://calendario-cientifico-escolar.github.io/images/personajes/306.png"
}