{
    "lang": "gal",
    "year": 2021,
    "month": 11,
    "day": 2,
    "title": "2 de novembro de 1919",
    "body": " Naceu Marie Morisawa, unha das fundadoras da xeomorfolox\u00eda ambiental. A xeomorfolox\u00eda une xeograf\u00eda\u200b e xeolox\u00eda para estudar as formas da superficie terrestre e entender a s\u00faa formaci\u00f3n e comportamento actual",
    "eventYear": "1919",
    "image": "https://calendario-cientifico-escolar.github.io/images/personajes/306.png"
}