{
    "lang": "es",
    "year": 2021,
    "month": 11,
    "day": 4,
    "title": "4 de noviembre de 2008",
    "body": " Un equipo de investigaci\u00f3n del IGME di\u00f3 a conocer el yacimiento de \u00e1mbar cret\u00e1cico de El Soplao. Tiene una dimensi\u00f3n y riqueza excepcionales y su \u00e1mbar azul-p\u00farpura muestra una luminiscencia sin parang\u00f3n en el mundo",
    "eventYear": "2008",
    "image": "https://calendario-cientifico-escolar.github.io/images/personajes/308.png"
}