{
    "lang": "eus",
    "year": 2021,
    "month": 11,
    "day": 4,
    "title": "2008/11/4",
    "body": " IGMEko ikerketa-talde batek El Soplaoko Kretazeoko anbar-hobiaren berri eman zuen. Aparteko tamaina eta aberastasuna dauzka, eta bertako anbar moreak sekulako luminiszentzia dauka, munduan parerik ez duena",
    "eventYear": "2008",
    "image": "https://calendario-cientifico-escolar.github.io/images/personajes/308.png"
}