{
    "lang": "astu",
    "year": 2021,
    "month": 11,
    "day": 5,
    "title": "5 de payares de 1794",
    "body": " La qu\u00edmica Elizabeth Fulhame public\u00f3 \u00abUn ensayu sobre la combusti\u00f3n\u00bb. Foi\u2019l primer exemplu de cat\u00e1lisis que se describi\u00f3",
    "eventYear": "1794",
    "image": "https://calendario-cientifico-escolar.github.io/images/personajes/309.png"
}