{
    "lang": "es",
    "year": 2021,
    "month": 11,
    "day": 8,
    "title": "8 de noviembre de 1878",
    "body": " Naci\u00f3 la paleont\u00f3loga y zo\u00f3loga Dorothea Bate. Fue pionera en zooarqueolog\u00eda y, junto a Dorothy Garrod, encontraron los restos f\u00f3siles de numerosas especies que no hab\u00edan sido descritas",
    "eventYear": "1878",
    "image": "https://calendario-cientifico-escolar.github.io/images/personajes/312.png"
}