{
    "lang": "es",
    "year": 2021,
    "month": 7,
    "day": 17,
    "title": "17 de julio de 1819",
    "body": " Naci\u00f3 la climat\u00f3loga e inventora Eunice Newton Foote. Fue una pionera en la investigaci\u00f3n del efecto invernadero. Se anticip\u00f3 tres a\u00f1os a los experimentos de John Tyndall, al que se consideraba el descubridor del efecto del CO2 en la atm\u00f3sfera",
    "eventYear": "1819",
    "image": "https://calendario-cientifico-escolar.github.io/images/personajes/198.png"
}