{
    "lang": "eus",
    "year": 2021,
    "month": 7,
    "day": 15,
    "title": "1799/7/15",
    "body": " Napoleonen Egiptoko kanpainan, Rosetta harria aurkitu zuten. Harri horretan inskripzioak zeuden, grekoz, hieroglifikoz, eta demotikoz idatziak, eta hieroglifiko egiptoarrak deszifratzeko gakoa izan zen",
    "eventYear": "1799",
    "image": "https://calendario-cientifico-escolar.github.io/images/personajes/196.png"
}