{
    "lang": "eus",
    "year": 2021,
    "month": 7,
    "day": 22,
    "title": "1871/7/22",
    "body": " Eskozian, Tay ibaiko trenbide-zubiaren lehen harria jarri zuten. Bere garaian, munduko zubirik luzeena izan zen",
    "eventYear": "1871",
    "image": "https://calendario-cientifico-escolar.github.io/images/personajes/203.png"
}