{
    "lang": "eus",
    "year": 2021,
    "month": 7,
    "day": 26,
    "title": "2005/7/26",
    "body": " Mangladien ekosistemaren defentsarako Nazioarteko lehen Eguna egin zen",
    "eventYear": "2005",
    "image": "https://calendario-cientifico-escolar.github.io/images/personajes/207.png"
}