{
    "lang": "en",
    "year": 2021,
    "month": 11,
    "day": 12,
    "title": "November 12, 1919",
    "body": " Molecular biologist Grete Kellenberger-Gujer was born. Her prestige derives from her discoveries about genetic recombination and DNA restriction",
    "eventYear": "1919",
    "image": "https://calendario-cientifico-escolar.github.io/images/personajes/316.png"
}