{
    "lang": "en",
    "year": 2021,
    "month": 11,
    "day": 14,
    "title": "November 14, 1863",
    "body": " Chemist Leo Baekeland was born. He invented the Bakelite, the first synthetic plastic. Its low cost and versatility made it very popular",
    "eventYear": "1863",
    "image": "https://calendario-cientifico-escolar.github.io/images/personajes/318.png"
}