{
    "lang": "en",
    "year": 2021,
    "month": 11,
    "day": 22,
    "title": "November 22, 2013",
    "body": " A research team from the University of B\u00f6nn discovered a gene of Neanderthal origin in modern people. It is an immunity gene that allows to recognize dangerous intruders and create an immune response for self-defense",
    "eventYear": "2013",
    "image": "https://calendario-cientifico-escolar.github.io/images/personajes/326.png"
}