{
    "lang": "en",
    "year": 2021,
    "month": 11,
    "day": 6,
    "title": "November 6, 1935",
    "body": " Engineer Edwin Armstrong presented the study entitled A method of reducing radio disturbance using a frequency modulation system. This gave origin to the frequency-modulated (FM) radio",
    "eventYear": "1935",
    "image": "https://calendario-cientifico-escolar.github.io/images/personajes/310.png"
}