{
    "lang": "eus",
    "year": 2021,
    "month": 6,
    "day": 1,
    "title": "1974/6/1",
    "body": " Emergency Medicine aldizkariak Heimlich-en maniobra argitaratu zuen. Eragiketa horrek aukera ematen du objektu arrotz batek buxatutako aire-bideak desblokeatzeko",
    "eventYear": "1974",
    "image": "https://calendario-cientifico-escolar.github.io/images/personajes/152.png"
}