{
    "lang": "es",
    "year": 2021,
    "month": 4,
    "day": 24,
    "title": "24 de abril de 2013",
    "body": " IBM desarroll\u00f3 un robot que combina telepresencia y tecnolog\u00edas de realidad aumentada para ayudar en proyectos de ingenier\u00eda en \u00e1reas remotas",
    "eventYear": "2013",
    "image": "https://calendario-cientifico-escolar.github.io/images/personajes/114.png"
}