{
    "lang": "es",
    "year": 2021,
    "month": 4,
    "day": 8,
    "title": "8 de abril de 1911",
    "body": " Naci\u00f3 el qu\u00edmico Melvin Calvin. Recibi\u00f3 el Premio Nobel de Qu\u00edmica por sus trabajos sobre la asimilaci\u00f3n del CO2 por las plantas",
    "eventYear": "1911",
    "image": "https://calendario-cientifico-escolar.github.io/images/personajes/98.png"
}