{
    "lang": "arag",
    "year": 2021,
    "month": 3,
    "day": 16,
    "title": "16 de marzo de 1799",
    "body": " Naixe la botanica Anna Atkins. Ye reconoixida como la primer muller fotografa",
    "eventYear": "1799",
    "image": "https://calendario-cientifico-escolar.github.io/images/personajes/75.png"
}