{
    "lang": "en",
    "year": 2021,
    "month": 6,
    "day": 1,
    "title": "June 1, 1974",
    "body": " The journal Emergency Medicine published the Heimlich maneuver. This maneuver unblocks the respiratory airways obstructed by an object",
    "eventYear": "1974",
    "image": "https://calendario-cientifico-escolar.github.io/images/personajes/152.png"
}