{
    "lang": "en",
    "year": 2021,
    "month": 6,
    "day": 3,
    "title": "June 3, 1976",
    "body": " Cosmographer Vicente Tofi\u00f1o de San Miguel observed the passage of Venus through the Sun during an eclipse. He published some annotations of great scientific interest",
    "eventYear": "1976",
    "image": "https://calendario-cientifico-escolar.github.io/images/personajes/154.png"
}