{
    "lang": "astu",
    "year": 2021,
    "month": 5,
    "day": 15,
    "title": "15 de mayu de 1925",
    "body": " Naci\u00f3 la xenetista Mary Frances Lyon. Descubri\u00f3 la lionizaci\u00f3n, un fen\u00f3menu pel que s\u2019inactiva una de los dos copies del cromosoma X nes c\u00e9lules de les femes mam\u00edferes",
    "eventYear": "1925",
    "image": "https://calendario-cientifico-escolar.github.io/images/personajes/135.png"
}