{
    "lang": "astu",
    "year": 2021,
    "month": 5,
    "day": 22,
    "title": "22 de mayu de 1960",
    "body": " Tuvo llugar el Gran Terremotu de Chile. Ye\u2019l terremotu de mayor magnit\u00fa que se rexistrare (9,5 en potencia de magnit\u00fa pel momentu). Provoc\u00f3 maremotos que llegaron a \u1e24awai, Xap\u00f3n y Rusia, y la erupci\u00f3n del volc\u00e1n Puyehue",
    "eventYear": "1960",
    "image": "https://calendario-cientifico-escolar.github.io/images/personajes/142.png"
}