{
    "lang": "astu",
    "year": 2021,
    "month": 5,
    "day": 9,
    "title": "9 de mayu de 1882",
    "body": " William H. Ford patent\u00f3\u2019l dise\u00f1u d\u2019un estetoscopiu cola forma qu\u2019ent\u00e1 s\u2019usa g\u00fcei",
    "eventYear": "1882",
    "image": "https://calendario-cientifico-escolar.github.io/images/personajes/129.png"
}