{
    "lang": "gal",
    "year": 2021,
    "month": 4,
    "day": 22,
    "title": "22 de abril de 1999",
    "body": " Apertura da Casa das Ciencias de Logro\u00f1o. Este centro est\u00e1 dedicado \u00e1 divulgaci\u00f3n da cultura da ciencia e a tecnolox\u00eda, a trav\u00e9s de exposici\u00f3ns, relatorios, cursos, proxecci\u00f3ns e demostraci\u00f3ns cient\u00edficas",
    "eventYear": "1999",
    "image": "https://calendario-cientifico-escolar.github.io/images/personajes/112.png"
}