{
    "lang": "gal",
    "year": 2021,
    "month": 4,
    "day": 26,
    "title": "26 de abril de 1927",
    "body": " Naceu a bi\u00f3loga Anne McLaren. Foi pioneira no estudo da biolox\u00eda do desenvolvemento. O seu traballo axudou a desenvolver a t\u00e9cnica de fertilizaci\u00f3n in vitro",
    "eventYear": "1927",
    "image": "https://calendario-cientifico-escolar.github.io/images/personajes/116.png"
}