{
    "lang": "gal",
    "year": 2021,
    "month": 4,
    "day": 27,
    "title": "27 de abril de 1993",
    "body": " O trombonista John Kenny foi o primeiro en facer soar un carnyx desde a \u00e9poca celta. Para iso, empregou unha reconstruci\u00f3n do carnyx de Deskford realizada polo music\u00f3logo John Purser e o ouriveiro John Creed. O instrumento orixinal e a reconstruci\u00f3n m\u00f3stranse no Museo Nacional de Escocia",
    "eventYear": "1993",
    "image": "https://calendario-cientifico-escolar.github.io/images/personajes/117.png"
}