{
    "lang": "gal",
    "year": 2021,
    "month": 4,
    "day": 4,
    "title": "4 de abril de 1868",
    "body": " Naceu a matem\u00e1tica Philippa Garrett Fawcett. Ga\u00f1ou unha bolsa na Universidade de Cambridge grazas ao seu extraordinario \u00e9xito no Mathematical Tripos (1890). Investigou sobre din\u00e1mica de flu\u00eddos",
    "eventYear": "1868",
    "image": "https://calendario-cientifico-escolar.github.io/images/personajes/94.png"
}