{
    "lang": "cat",
    "year": 2021,
    "month": 2,
    "day": 11,
    "title": "11 de febrer de 1939",
    "body": " Lise Meitner va publicar el primer descobriment de fissi\u00f3 nuclear d'urani quan absorbeix un neutr\u00f3 addicional",
    "eventYear": "1939",
    "image": "https://calendario-cientifico-escolar.github.io/images/personajes/42.png"
}