{
    "lang": "arag",
    "year": 2021,
    "month": 2,
    "day": 13,
    "title": "13 de febrero de 1946",
    "body": " Naixe la  matematica Pilar Bayer. En 1986 fund\u00f3 lo Seminario de Teor\u00eda de Numeros de Barcelona, en o qual s'enmarca la suya actividat investigadera",
    "eventYear": "1946",
    "image": "https://calendario-cientifico-escolar.github.io/images/personajes/44.png"
}