{
    "lang": "arag",
    "year": 2021,
    "month": 2,
    "day": 15,
    "title": "15 de febrero de 2001",
    "body": " Se publica en Nature (y a l'atro'l d\u00eda en Science) la seq\u00fcenciaci\u00f3n y analisi inicial d'o chenoma humano",
    "eventYear": "2001",
    "image": "https://calendario-cientifico-escolar.github.io/images/personajes/46.png"
}