{
    "lang": "cat",
    "year": 2021,
    "month": 2,
    "day": 16,
    "title": "16 de febrer de 2005",
    "body": " Va entrar en vigor el Protocol de Kyoto, conveni mundial per reduir les emissions de gasos d'efecte hivernacle",
    "eventYear": "2005",
    "image": "https://calendario-cientifico-escolar.github.io/images/personajes/47.png"
}