{
    "lang": "arag",
    "year": 2021,
    "month": 2,
    "day": 1,
    "title": "1 de febrero de 1949",
    "body": " Dentra en funcionamiento lo telescopio Hale, lo mas gran d'o mundo en ixe momento (200 pulzadas)",
    "eventYear": "1949",
    "image": "https://calendario-cientifico-escolar.github.io/images/personajes/32.png"
}