{
    "lang": "en",
    "year": 2021,
    "month": 2,
    "day": 22,
    "title": "February 22, 1876",
    "body": " \u200b\u200bJohns Hopkins University was founded. It was the first university specifically dedicated to medical research in the United States. The foundation was possible by the businessman Johns Hopkins' bequest",
    "eventYear": "1876",
    "image": "https://calendario-cientifico-escolar.github.io/images/personajes/53.png"
}