{
    "lang": "cat",
    "year": 2021,
    "month": 2,
    "day": 23,
    "title": "23 de febrer de 1879",
    "body": " Va n\u00e9ixer Agnes Arber, bot\u00e0nica especialitzada en l'estudi de plantes monocotiled\u00f2nies",
    "eventYear": "1879",
    "image": "https://calendario-cientifico-escolar.github.io/images/personajes/54.png"
}