{
    "lang": "astu",
    "year": 2021,
    "month": 2,
    "day": 24,
    "title": "24 de febreru de 1938",
    "body": " La empresa DuPont entam\u00f3 la fabricaci\u00f3n del primer productu de nailon destin\u00e1u a la venta: un cepiyu de dientes. Hasta ent\u00f3s fac\u00edense principalmente con pelo del pescuezu de los gochos",
    "eventYear": "1938",
    "image": "https://calendario-cientifico-escolar.github.io/images/personajes/55.png"
}