{
    "lang": "gal",
    "year": 2021,
    "month": 2,
    "day": 2,
    "title": "2 de febreiro de 1939",
    "body": " Naceu a biotecn\u00f3loga Mary-Dell Chilton. Foi unha das fundadoras da biotecnolox\u00eda moderna en plantas",
    "eventYear": "1939",
    "image": "https://calendario-cientifico-escolar.github.io/images/personajes/33.png"
}