{
    "lang": "en",
    "year": 2021,
    "month": 2,
    "day": 4,
    "title": "February 4, 1896",
    "body": " Thaddeus Cahill filed a patent application for the Telharmonium, the first fully electronic and polyphonic musical instrument. The first prototype weighed 200 tons and was 18 meters long",
    "eventYear": "1896",
    "image": "https://calendario-cientifico-escolar.github.io/images/personajes/35.png"
}