{
    "lang": "en",
    "year": 2021,
    "month": 2,
    "day": 7,
    "title": "February 7, 1824",
    "body": " William Huggins was born. He revolutionized astronomy by applying methods to determine stars' chemical composition",
    "eventYear": "1824",
    "image": "https://calendario-cientifico-escolar.github.io/images/personajes/38.png"
}