{
    "lang": "eus",
    "year": 2021,
    "month": 2,
    "day": 7,
    "title": "1824/2/7",
    "body": " William Huggins jaio zen. Astronomia irauli zuen, izarren konposizio kimikoa zehazteko metodoak erabili zituelako",
    "eventYear": "1824",
    "image": "https://calendario-cientifico-escolar.github.io/images/personajes/38.png"
}