{
    "lang": "astu",
    "year": 2021,
    "month": 2,
    "day": 8,
    "title": "8 de febreru de 1825",
    "body": " Naci\u00f3 Henry Bates. Afay\u00f3 que, pa protexese de los depredadores, delles caparines inofensives asem\u00e9yense enforma a otres especies que son t\u00f3xiques (mimetismu batesianu)",
    "eventYear": "1825",
    "image": "https://calendario-cientifico-escolar.github.io/images/personajes/39.png"
}