{
    "lang": "es",
    "year": 2021,
    "month": 2,
    "day": 9,
    "title": "9 de febrero de 1859",
    "body": " Naci\u00f3 el constructor de \u00f3rganos Robert Hope-Jones. Desarroll\u00f3 un \u00f3rgano de teatro para acompa\u00f1ar a las pel\u00edculas mudas. Bas\u00e1ndose en su mecanismo, patent\u00f3 el di\u00e1fono, que es la potente sirena que se sit\u00faa junto a los faros y puede guiar a los barcos en la niebla",
    "eventYear": "1859",
    "image": "https://calendario-cientifico-escolar.github.io/images/personajes/40.png"
}