{
    "lang": "astu",
    "year": 2021,
    "month": 6,
    "day": 21,
    "title": "21 de xunu de 1997",
    "body": " Instaur\u00f3se\u2019l D\u00eda Internacional de la Esclerosis Llateral Amiotr\u00f3fica (ELA). Ta aguiy\u00e1u por asociaciones de pacientes de tol mundu y tien como oxetivu informar y sensibilizar acerca d\u2019esta enfermed\u00e1 ent\u00e1 ensin cura",
    "eventYear": "1997",
    "image": "https://calendario-cientifico-escolar.github.io/images/personajes/172.png"
}