{
    "lang": "astu",
    "year": 2021,
    "month": 6,
    "day": 27,
    "title": "27 de xunu de 1915",
    "body": " Naci\u00f3 la f\u00edsica Traude Bernert. Xunto cola qu\u00edmica Berta Karlik, identificaron los is\u00f3topos 215, 216 y 218 del \u00e1statu. Tami\u00e9n descubrieron qu\u2019esti elementu produzse na descomposici\u00f3n del radiu, del toriu y del actiniu",
    "eventYear": "1915",
    "image": "https://calendario-cientifico-escolar.github.io/images/personajes/178.png"
}