{
    "lang": "astu",
    "year": 2021,
    "month": 6,
    "day": 5,
    "title": "5 de xunu de 2002",
    "body": " Present\u00f3se oficialmente l\u2019AMIT (Asociaci\u00f3n de Muyeres Investigadores y Teun\u00f3logues). Esta asociaci\u00f3n promueve l\u2019accesu igualitariu de les muyeres a les xeres investigadores en toles rames de la conocencia y nel sector teunol\u00f3xicu",
    "eventYear": "2002",
    "image": "https://calendario-cientifico-escolar.github.io/images/personajes/156.png"
}