{
    "lang": "es",
    "year": 2021,
    "month": 3,
    "day": 10,
    "title": "10 de marzo de 1876",
    "body": " Alexander Graham Bell hizo la primera llamada telef\u00f3nica exitosa en la historia",
    "eventYear": "1876",
    "image": "https://calendario-cientifico-escolar.github.io/images/personajes/69.png"
}