{
    "lang": "es",
    "year": 2021,
    "month": 3,
    "day": 6,
    "title": "6 de marzo de 1937",
    "body": " Naci\u00f3 la ingeniera y cosmonauta Valentina Tereshkova. Fue la primera mujer que viaj\u00f3 al espacio exterior, a bordo de la nave Vostok 6",
    "eventYear": "1937",
    "image": "https://calendario-cientifico-escolar.github.io/images/personajes/65.png"
}