{
    "lang": "cat",
    "year": 2021,
    "month": 9,
    "day": 12,
    "title": "12 de setembre de 1958",
    "body": " L'enginyer el\u00e8ctric Jack Kilby va presentar el primer circuit integrat del m\u00f3n. Els circuits integrats tamb\u00e9 es coneixen com a xips o microxips",
    "eventYear": "1958",
    "image": "https://calendario-cientifico-escolar.github.io/images/personajes/255.png"
}