{
    "lang": "cat",
    "year": 2021,
    "month": 9,
    "day": 17,
    "title": "17 de setembre de 1857",
    "body": " Va n\u00e9ixer el f\u00edsic i matem\u00e0tic Konstant\u00edn Tsiolkovski. Era sord des dels 10 anys i completament autodidacta. Els seus treballs van permetre posar en \u00f2rbita el primer sat\u00e8l\u00b7lit artificial i el primer viatge d'una persona a l'espai",
    "eventYear": "1857",
    "image": "https://calendario-cientifico-escolar.github.io/images/personajes/260.png"
}