{
    "lang": "cat",
    "year": 2021,
    "month": 9,
    "day": 22,
    "title": "22 de setembre de 1863",
    "body": " Va n\u00e9ixer el microbi\u00f2leg Alexandre Yersin. Va ser codescobridor del bacteri responsable de la pesta bub\u00f2nica, que s'anomena Yersinia pestis en honor seu",
    "eventYear": "1863",
    "image": "https://calendario-cientifico-escolar.github.io/images/personajes/265.png"
}