{
    "lang": "cat",
    "year": 2021,
    "month": 9,
    "day": 30,
    "title": "30 de setembre de 2009",
    "body": " L'Observatori Astron\u00f2mic de Mallorca va anunciar el descobriment de l'estel '2009QG31 La Sagra', m\u00e9s enll\u00e0 de l'\u00f2rbita de Mart",
    "eventYear": "2009",
    "image": "https://calendario-cientifico-escolar.github.io/images/personajes/273.png"
}