{
    "lang": "cat",
    "year": 2021,
    "month": 9,
    "day": 8,
    "title": "8 de setembre de 1871",
    "body": " Va n\u00e9ixer la inventora i pianista Mary Elizabeth Hallock-Greenewalt. Les seves patents van permetre el desenvolupament del Sarabet, un \u00f2rgan de color. Aquest instrument emetia llums de colors amb intensitats i matisos que estaven sincronitzats amb la m\u00fasica",
    "eventYear": "1871",
    "image": "https://calendario-cientifico-escolar.github.io/images/personajes/251.png"
}