{
    "lang": "es",
    "year": 2021,
    "month": 9,
    "day": 12,
    "title": "12 de septiembre de 1958",
    "body": " El ingeniero el\u00e9ctrico Jack Kilby present\u00f3 el primer circuito integrado del mundo. Los circuitos integrados tambi\u00e9n se conocen como chips o microchips",
    "eventYear": "1958",
    "image": "https://calendario-cientifico-escolar.github.io/images/personajes/255.png"
}