{
    "lang": "es",
    "year": 2021,
    "month": 9,
    "day": 26,
    "title": "26 de septiembre de 2013",
    "body": " El Curiosity Rover de la NASA detect\u00f3 una gran cantidad de agua de f\u00e1cil acceso en el cr\u00e1ter Gale de Marte",
    "eventYear": "2013",
    "image": "https://calendario-cientifico-escolar.github.io/images/personajes/269.png"
}