{
    "lang": "es",
    "year": 2021,
    "month": 9,
    "day": 5,
    "title": "5 de septiembre de 1885",
    "body": " Se instal\u00f3 la primera gasolinera. Fue en un garaje de Indiana (Estados Unidos)",
    "eventYear": "1885",
    "image": "https://calendario-cientifico-escolar.github.io/images/personajes/248.png"
}