{
    "lang": "es",
    "year": 2021,
    "month": 9,
    "day": 7,
    "title": "7 de septiembre de 2016",
    "body": " Investigadores del IGME, el Instituto de Ciencias del Mar (CSIC) y la Universidad de Las Palmas de Gran Canaria descubrieron que la isla de El Hierro perdi\u00f3 el 40% de su volumen durante un enorme derrumbamiento de tierra. El megadeslizamiento tuvo lugar hace 80.000 a\u00f1os",
    "eventYear": "2016",
    "image": "https://calendario-cientifico-escolar.github.io/images/personajes/250.png"
}