{
    "lang": "en",
    "year": 2021,
    "month": 9,
    "day": 1,
    "title": "September 1, 1914",
    "body": " Martha, the last passenger pigeon (Ectopistes migratorius), died. It was 29 years old and lived in captivity at the Cincinnati Zoo (USA). In just a century, passenger pigeons went from being the most abundant bird in North America to becoming extinct",
    "eventYear": "1914",
    "image": "https://calendario-cientifico-escolar.github.io/images/personajes/244.png"
}