{
    "lang": "en",
    "year": 2021,
    "month": 9,
    "day": 17,
    "title": "September 17, 1857",
    "body": " Physicist and mathematician Konstant\u00edn Tsiolkovski was born. He was deaf since he was 10 years old and was completely self-taught. His work made it possible to put the first artificial satellite into orbit and the first trip of a person into space",
    "eventYear": "1857",
    "image": "https://calendario-cientifico-escolar.github.io/images/personajes/260.png"
}