{
    "lang": "es",
    "year": 2021,
    "month": 8,
    "day": 12,
    "title": "12 de agosto de 1898",
    "body": " Naci\u00f3 la ge\u00f3loga marina Mar\u00eda Vas\u00edlievna Kli\u00f3nova. Fue la primera mujer que investig\u00f3 en la Ant\u00e1rtida",
    "eventYear": "1898",
    "image": "https://calendario-cientifico-escolar.github.io/images/personajes/224.png"
}