{
    "lang": "es",
    "year": 2021,
    "month": 8,
    "day": 19,
    "title": "19 de agosto de 1790",
    "body": " Naci\u00f3 el relojero Edward John Dent. Es reconocido por la creaci\u00f3n de relojes de gran precisi\u00f3n y cron\u00f3metros marinos. Entre sus relojes m\u00e1s famosos est\u00e1 el Big Ben de Londres",
    "eventYear": "1790",
    "image": "https://calendario-cientifico-escolar.github.io/images/personajes/231.png"
}