{
    "lang": "es",
    "year": 2021,
    "month": 8,
    "day": 23,
    "title": "23 de agosto de 1931",
    "body": " Naci\u00f3 el microbi\u00f3logo Hamilton O. Smith. Recibi\u00f3 el Premio Nobel por sus trabajos sobre enzimas de restricci\u00f3n, capaces de cortar los \u00e1cidos nucleicos en puntos concretos",
    "eventYear": "1931",
    "image": "https://calendario-cientifico-escolar.github.io/images/personajes/235.png"
}