{
    "lang": "es",
    "year": 2021,
    "month": 8,
    "day": 7,
    "title": "7 de agosto de 1933",
    "body": " Naci\u00f3 la polit\u00f3loga Elinor Ostrom. Fue la primera mujer en obtener el Premio Nobel de Econom\u00eda, en 2009. Estudi\u00f3 c\u00f3mo las personas interact\u00faan para mantener a largo plazo los niveles de producci\u00f3n de recursos comunes",
    "eventYear": "1933",
    "image": "https://calendario-cientifico-escolar.github.io/images/personajes/219.png"
}