{
    "lang": "arag",
    "year": 2021,
    "month": 4,
    "day": 12,
    "title": "12 d'abril de 1961",
    "body": " Yuri Gagarin esdeviene o primer ser humano en viachar ta lo espacio. Lo va fer a bordo d'a nau sovietica Vostok 1",
    "eventYear": "1961",
    "image": "https://calendario-cientifico-escolar.github.io/images/personajes/102.png"
}