{
    "lang": "arag",
    "year": 2021,
    "month": 4,
    "day": 13,
    "title": "13 d'abril de 2014",
    "body": " La expedici\u00f3n Subvent d'o IGME descubre grans bancos de musclos quimiosinteticos alredor de fuents de metano en o Golfo de C\u00e1diz. Tami\u00e9n descubri\u00f3 nuevos volcans submarinos en Lanzarote",
    "eventYear": "2014",
    "image": "https://calendario-cientifico-escolar.github.io/images/personajes/103.png"
}