{
    "lang": "arag",
    "year": 2021,
    "month": 4,
    "day": 23,
    "title": "23 d'abril de 1933",
    "body": " Naixe la informatica Annie J. Easley. Treball\u00f3 en o Lewis Research Center d'a NASA. Form\u00f3 parte de l'equipo que desenroll\u00f3 lo software d'o codete Centauro",
    "eventYear": "1933",
    "image": "https://calendario-cientifico-escolar.github.io/images/personajes/113.png"
}