{
    "lang": "es",
    "year": 2021,
    "month": 10,
    "day": 28,
    "title": "28 de octubre de 1848",
    "body": " Se inaugura el primer ferrocarril de la pen\u00ednsula ib\u00e9rica. Conectaba Barcelona con Matar\u00f3 y su construcci\u00f3n oblig\u00f3 a perforar el primer t\u00fanel ferroviario de Espa\u00f1a",
    "eventYear": "1848",
    "image": "https://calendario-cientifico-escolar.github.io/images/personajes/301.png"
}