{
    "lang": "gal",
    "year": 2021,
    "month": 5,
    "day": 22,
    "title": "22 de maio de 1960",
    "body": " Tivo lugar o Gran Terremoto de Chile. \u00c9 o terremoto de maior magnitude que se leva rexistrado (9,5 en potencia de magnitude de momento). Provocou maremotos que chegaron a Hawai, Xap\u00f3n e Rusia, e a erupci\u00f3n do volc\u00e1n Puyehue",
    "eventYear": "1960",
    "image": "https://calendario-cientifico-escolar.github.io/images/personajes/142.png"
}