{
    "lang": "en",
    "year": 2021,
    "month": 1,
    "day": 14,
    "title": "January 14, 1973",
    "body": " Elvis Presley performed the first concert broadcast via satellite. It was from the Honolulu International Center and could be seen from 40 countries",
    "eventYear": "1973",
    "image": "https://calendario-cientifico-escolar.github.io/images/personajes/14.png"
}