{
    "lang": "en",
    "year": 2021,
    "month": 1,
    "day": 15,
    "title": "January 15, 1826",
    "body": " Scientific assistant Marie Pasteur was born. She worked as an assistant and collaborator with Louis Pasteur, to whom she was married. Her support was essential in the researcher's discoveries",
    "eventYear": "1826",
    "image": "https://calendario-cientifico-escolar.github.io/images/personajes/15.png"
}