{
    "lang": "en",
    "year": 2021,
    "month": 1,
    "day": 20,
    "title": "January 20, 1944",
    "body": " The Cogullada Experimental Biology Station (currently known as Aula Dei Experimental Station) was founded. The objective of this CSIC institute is to improve the competitiveness and sustainability of the agricultural sector",
    "eventYear": "1944",
    "image": "https://calendario-cientifico-escolar.github.io/images/personajes/20.png"
}