{
    "lang": "astu",
    "year": 2021,
    "month": 2,
    "day": 21,
    "title": "21 de febreru de 1947",
    "body": " L\u2019inventor Edwin Herbert Land amos\u00f3 per primer vegada en p\u00fablico una c\u00e1mara instant\u00e1nea de semeyes, la Polaroid Land Camera",
    "eventYear": "1947",
    "image": "https://calendario-cientifico-escolar.github.io/images/personajes/52.png"
}