{
    "lang": "astu",
    "year": 2021,
    "month": 2,
    "day": 25,
    "title": "25 de febreru de 1869",
    "body": " Naci\u00f3\u2019l qu\u00edmicu Phoebus Levene. Descubri\u00f3 la desoxirribosa, \u00fan de los componentes principales del ADN",
    "eventYear": "1869",
    "image": "https://calendario-cientifico-escolar.github.io/images/personajes/56.png"
}