{
    "lang": "astu",
    "year": 2021,
    "month": 2,
    "day": 6,
    "title": "6 de febreru de 2014",
    "body": " La NASA public\u00f3 la primer imaxe tomada pol Rover Curiosity: la imaxe de la Tierra y la Lluna nel cielu de Marte",
    "eventYear": "2014",
    "image": "https://calendario-cientifico-escolar.github.io/images/personajes/37.png"
}