{
    "lang": "en",
    "year": 2021,
    "month": 2,
    "day": 26,
    "title": "February 26, 1958",
    "body": " Susan Helms was born, a woman astronaut who broke the record for the longest spacewalk (almost 9 hours)",
    "eventYear": "1958",
    "image": "https://calendario-cientifico-escolar.github.io/images/personajes/57.png"
}