{
    "lang": "cat",
    "year": 2021,
    "month": 7,
    "day": 19,
    "title": "19 de juliol de 1945",
    "body": " Va n\u00e9ixer la genetista Nancy Wexler. Va col\u00b7laborar en el descobriment de la localitzaci\u00f3 del gen que causa la malaltia de Huntington",
    "eventYear": "1945",
    "image": "https://calendario-cientifico-escolar.github.io/images/personajes/200.png"
}