{
    "lang": "cat",
    "year": 2021,
    "month": 7,
    "day": 2,
    "title": "2 de juliol de 1982",
    "body": " Richard Walters Lawrence va lligar 45 globus d'heli a una cadira de jard\u00ed i aquesta es va elevar a m\u00e9s de 4.500 m. Frustrat per no haver pogut ser pilot de les Forces A\u00e8ries dels EUA, va decidir volar pel seu compte d'aquesta manera tan especial",
    "eventYear": "1982",
    "image": "https://calendario-cientifico-escolar.github.io/images/personajes/183.png"
}