{
    "lang": "cat",
    "year": 2021,
    "month": 7,
    "day": 23,
    "title": "23 de juliol de 2020",
    "body": " Un estudi amb participaci\u00f3 del CSIC va revelar una reducci\u00f3 del 50% del soroll s\u00edsmic generat per l'activitat humana. Aquesta reducci\u00f3 es va produir a conseq\u00fc\u00e8ncia de les mesures de confinament per la pand\u00e8mia del coronavirus",
    "eventYear": "2020",
    "image": "https://calendario-cientifico-escolar.github.io/images/personajes/204.png"
}