{
    "lang": "eus",
    "year": 2021,
    "month": 2,
    "day": 3,
    "title": "1900/2/3",
    "body": " Juana \u00c1lvarez-Prida y Vega jaio zen. Espainiako lehen kimikarietako bat izan zen 1990ean, Zientziaren Emakume Aurrerazalearen lehen Saria jaso zuen",
    "eventYear": "1900",
    "image": "https://calendario-cientifico-escolar.github.io/images/personajes/34.png"
}