{
    "lang": "astu",
    "year": 2021,
    "month": 5,
    "day": 10,
    "title": "10 de mayu de 1888",
    "body": " Naci\u00f3 la hemat\u00f3loga Lucy Wills. Atop\u00f3 un factor nutricional nel lleldu que previ\u00e9n y cura l\u2019anemia macroc\u00edtica nel embarazu. Conozse como\u2019l factor de Wills o folatu, la forma natural del \u00e1cidu f\u00f3lico",
    "eventYear": "1888",
    "image": "https://calendario-cientifico-escolar.github.io/images/personajes/130.png"
}