{
    "lang": "es",
    "year": 2021,
    "month": 5,
    "day": 10,
    "title": "10 de mayo de 1888",
    "body": " Naci\u00f3 la hemat\u00f3loga Lucy Wills. Descubri\u00f3 un factor nutricional en la levadura que previene y cura la anemia macroc\u00edtica en el embarazo. Se conoce como el factor de Wills o folato, la forma natural del \u00e1cido f\u00f3lico",
    "eventYear": "1888",
    "image": "https://calendario-cientifico-escolar.github.io/images/personajes/130.png"
}