{
    "lang": "astu",
    "year": 2021,
    "month": 5,
    "day": 12,
    "title": "12 de mayu de 1910",
    "body": " Naci\u00f3\u2019l Premiu Nobel Dorothy Crowfoot Hodgkin. Determin\u00f3 la estructura 3D de mol\u00e9cules como la penicilina o la insulina. La estructura 3D ye clave pa entender les funciones",
    "eventYear": "1910",
    "image": "https://calendario-cientifico-escolar.github.io/images/personajes/132.png"
}