{
    "lang": "gal",
    "year": 2021,
    "month": 5,
    "day": 12,
    "title": "12 de maio de 1910",
    "body": " Naceu a Premio Nobel Dorothy Crowfoot Hodgkin. Determinou a estrutura 3D de mol\u00e9culas como a penicilina ou a insulina. A estrutura 3D \u00e9 clave para entendermos as funci\u00f3ns",
    "eventYear": "1910",
    "image": "https://calendario-cientifico-escolar.github.io/images/personajes/132.png"
}