{
    "lang": "astu",
    "year": 2021,
    "month": 5,
    "day": 13,
    "title": "13 de mayu de 1857",
    "body": " Naci\u00f3\u2019l bacteri\u00f3logu Ronald Ross. Descubri\u00f3 que la malaria tresmit\u00edase pel mosquitu Anopheles",
    "eventYear": "1857",
    "image": "https://calendario-cientifico-escolar.github.io/images/personajes/133.png"
}