{
    "lang": "es",
    "year": 2021,
    "month": 5,
    "day": 14,
    "title": "14 de mayo de 1899",
    "body": " Naci\u00f3 la bi\u00f3loga Charlotte Auerbach. Se especializ\u00f3 en zoolog\u00eda y gen\u00e9tica, y contribuy\u00f3 al descubrimiento de la mutag\u00e9nesis y de sus efectos. Se hizo c\u00e9lebre en 1942 cuando puso de manifiesto, junto con Alfred Joseph Clark y John Michael Robson, que el gas mostaza pod\u00eda causar mutaciones",
    "eventYear": "1899",
    "image": "https://calendario-cientifico-escolar.github.io/images/personajes/134.png"
}