{
    "lang": "en",
    "year": 2021,
    "month": 5,
    "day": 15,
    "title": "May 15, 1925",
    "body": " Geneticist Mary Frances Lyon was born. She discovered lyonization, a phenomenon by which one of the two copies of the X chromosome is inactivated in female mammals' cells",
    "eventYear": "1925",
    "image": "https://calendario-cientifico-escolar.github.io/images/personajes/135.png"
}