{
    "lang": "astu",
    "year": 2021,
    "month": 5,
    "day": 1,
    "title": "1 de mayu de 2013",
    "body": " Entam\u00f3\u2019l proyeutu EMTASY pa determinar el mecanismu qu\u2019asitia\u2019l coraz\u00f3n a la esquierda. Dirixi\u00f3lu \u00c1ngela Nieto Toledano y ayud\u00f3 a entender munches malformaciones conx\u00e9nites",
    "eventYear": "2013",
    "image": "https://calendario-cientifico-escolar.github.io/images/personajes/121.png"
}