{
    "lang": "es",
    "year": 2021,
    "month": 5,
    "day": 20,
    "title": "20 de mayo de 1900",
    "body": " Naci\u00f3 la qu\u00edmica y f\u00edsica Erika Cremer. Fue pionera en cromatograf\u00eda de gases. Sin embargo, su art\u00edculo de 1944 acerca de su m\u00e9todo no se lleg\u00f3 a publicar porque un bombardeo destruy\u00f3 las pruebas de imprenta en la revista Naturwissenschaften",
    "eventYear": "1900",
    "image": "https://calendario-cientifico-escolar.github.io/images/personajes/140.png"
}