{
    "lang": "arag",
    "year": 2021,
    "month": 5,
    "day": 23,
    "title": "23 de mayo de 1954",
    "body": " Naixe lo biologo Keith Campbell. Fue una persona clau de l'equipo que clon\u00f3 a la uella Dolly en l'Instituto Roslin d'Edimburgo",
    "eventYear": "1954",
    "image": "https://calendario-cientifico-escolar.github.io/images/personajes/143.png"
}