{
    "lang": "gal",
    "year": 2021,
    "month": 5,
    "day": 24,
    "title": "24 de maio de 1878",
    "body": " Naceu a psic\u00f3loga e enxe\u00f1eira Lillian Moller Gilbreth. \u00c9 co\u00f1ecida polo seu traballo na aplicaci\u00f3n da organizaci\u00f3n psicol\u00f3xica na industria",
    "eventYear": "1878",
    "image": "https://calendario-cientifico-escolar.github.io/images/personajes/144.png"
}