{
    "lang": "arag",
    "year": 2021,
    "month": 5,
    "day": 25,
    "title": "25 de mayo de 1880",
    "body": " Naixe lo neurologo Jean Alexandre Barr\u00e9. Identific\u00f3 lo sindrome de Guillain-Barr\u00e9, una malot\u00eda neurolochica rara",
    "eventYear": "1880",
    "image": "https://calendario-cientifico-escolar.github.io/images/personajes/145.png"
}