{
    "lang": "es",
    "year": 2021,
    "month": 5,
    "day": 27,
    "title": "27 de mayo de 1931",
    "body": " Naci\u00f3 el economista Philip Kotler. Es considerado el padre del marketing moderno",
    "eventYear": "1931",
    "image": "https://calendario-cientifico-escolar.github.io/images/personajes/147.png"
}