{
    "lang": "arag",
    "year": 2021,
    "month": 5,
    "day": 30,
    "title": "30 de mayo de 2021",
    "body": " D\u00eda Mundial d'a Esclerosi Multiple. Se celebra cada anyo pa compartir historias, conscienciar a la sociedat y fer campanyas con y pa totz los afectaus per esta malot\u00eda",
    "eventYear": "2021",
    "image": "https://calendario-cientifico-escolar.github.io/images/personajes/150.png"
}