{
    "lang": "cat",
    "year": 2021,
    "month": 5,
    "day": 30,
    "title": "30 de maig de 2021",
    "body": " Dia Mundial de l'Esclerosi M\u00faltiple. Se celebra cada any per compartir hist\u00f2ries, conscienciar a la societat i fer campanyes amb i per a tots els afectats per aquesta malaltia",
    "eventYear": "2021",
    "image": "https://calendario-cientifico-escolar.github.io/images/personajes/150.png"
}