{
    "lang": "eus",
    "year": 2021,
    "month": 5,
    "day": 30,
    "title": "2021/5/30",
    "body": " Esklerosi Anizkoitzaren Mundu Eguna. Urtero egiten da, kontakizunak partekatzeko, gizartea kontzientziatzeko eta gaixotasun hori duten guztiekin eta guztientzat kanpainak egiteko",
    "eventYear": "2021",
    "image": "https://calendario-cientifico-escolar.github.io/images/personajes/150.png"
}