{
    "lang": "astu",
    "year": 2021,
    "month": 5,
    "day": 31,
    "title": "31 de mayu de 1903",
    "body": " El f\u00edsicu Konstantin Tsiolkovsky propunxo per primer vegada que les persones podr\u00eden viaxar al espaciu usando cohetes",
    "eventYear": "1903",
    "image": "https://calendario-cientifico-escolar.github.io/images/personajes/151.png"
}