{
    "lang": "en",
    "year": 2021,
    "month": 5,
    "day": 31,
    "title": "May 31, 1903",
    "body": " Physicist Konstantin Tsiolkovsky first proposed that people could travel to space using rockets",
    "eventYear": "1903",
    "image": "https://calendario-cientifico-escolar.github.io/images/personajes/151.png"
}