{
    "lang": "gal",
    "year": 2021,
    "month": 5,
    "day": 31,
    "title": "31 de maio de 1903",
    "body": " O f\u00edsico Konstantin Tsiolkovsky propuxo por primeira vez que as persoas poder\u00edan viaxar ao espazo usando foguetes",
    "eventYear": "1903",
    "image": "https://calendario-cientifico-escolar.github.io/images/personajes/151.png"
}