{
    "lang": "eus",
    "year": 2021,
    "month": 8,
    "day": 14,
    "title": "1777/8/14",
    "body": " Hans Christian Oersted jaio zen. Elektromagnetismoa aurkitu zuen fisikaria izan zen",
    "eventYear": "1777",
    "image": "https://calendario-cientifico-escolar.github.io/images/personajes/226.png"
}