{
    "lang": "eus",
    "year": 2021,
    "month": 8,
    "day": 24,
    "title": "1890/8/24",
    "body": " Pearl Louella Kendrick bakteriologoa jaio zen. Tosferinaren aurkako lehen txertoa garatu zuelako da ezaguna. Grace Eldering osasun publikoko adituarekin eta Loney Gordon kimikariarekin elkarlanean egin zuen",
    "eventYear": "1890",
    "image": "https://calendario-cientifico-escolar.github.io/images/personajes/236.png"
}