{
    "lang": "eus",
    "year": 2021,
    "month": 8,
    "day": 29,
    "title": "2019/8/29",
    "body": " Geneek sexu-jokabidean duten garrantzia aztertzeko egin den azterlanik handienak berretsi zuen homosexualitatearen gen bakar bat ez dagoela, giza sexualitatearen konplexutasuna agerian jarriz",
    "eventYear": "2019",
    "image": "https://calendario-cientifico-escolar.github.io/images/personajes/241.png"
}