{
    "lang": "astu",
    "year": 2021,
    "month": 12,
    "day": 14,
    "title": "14 d\u2019avientu de 1911",
    "body": " La espedici\u00f3n noruega empobinada por Roald Amundsen lleg\u00f3 al Polu Sur. Por si l\u2019equipu nun consigu\u00eda tornar, dexaron ell\u00ed una tienda con una carta nel so interior pa demostrar el so llogru",
    "eventYear": "1911",
    "image": "https://calendario-cientifico-escolar.github.io/images/personajes/348.png"
}