{
    "lang": "astu",
    "year": 2021,
    "month": 12,
    "day": 24,
    "title": "24 d\u2019avientu de 1913",
    "body": " Naci\u00f3 la qu\u00edmica Miriam Michael Stimson. Desendolc\u00f3 la t\u00e9unica de discu de bromuru de potasiu. Esti m\u00e9todu de preparaci\u00f3n de les amueses ameyora\u2019l so an\u00e1lisis per espectroscop\u00eda infrarroxa",
    "eventYear": "1913",
    "image": "https://calendario-cientifico-escolar.github.io/images/personajes/358.png"
}