{
    "lang": "arag",
    "year": 2021,
    "month": 10,
    "day": 10,
    "title": "10 d'octubre de 1966",
    "body": " Naixe la quimica Carolyn Bertozzi. Va estudiar lo papel d'os glucidos en malot\u00edas como lo cancer, l'artritis u la tuberculosi",
    "eventYear": "1966",
    "image": "https://calendario-cientifico-escolar.github.io/images/personajes/283.png"
}