{
    "lang": "arag",
    "year": 2021,
    "month": 10,
    "day": 26,
    "title": "26 d'octubre de 1878",
    "body": " Naixe lo matematico Sixto Camera Tecedor. Va estar cofundador de l'Asociaci\u00f3n Espanyola pa lo Progreso d'as Sciencias, la Sociedat Matematica Espanyola y lo Laboratorio y Seminario Matematico d'a Chunta pa l'Ampliaci\u00f3n d'Estudios",
    "eventYear": "1878",
    "image": "https://calendario-cientifico-escolar.github.io/images/personajes/299.png"
}