{
    "lang": "arag",
    "year": 2021,
    "month": 10,
    "day": 27,
    "title": "27 d'octubre de 1904",
    "body": " Philip Downing inventa l'apartau de correus, encara en uso en l'actualidat",
    "eventYear": "1904",
    "image": "https://calendario-cientifico-escolar.github.io/images/personajes/300.png"
}