{
    "lang": "arag",
    "year": 2021,
    "month": 10,
    "day": 3,
    "title": "3 d'octubre de 1946",
    "body": " La quimica y cristalografa Rosalind Franklin publica la suya tesi doctoral sobre quimica d'o carb\u00f3n. Lo treballo esti\u00f3 clau pa comprender la estructura molecular de l'ADN",
    "eventYear": "1946",
    "image": "https://calendario-cientifico-escolar.github.io/images/personajes/276.png"
}