{
    "lang": "arag",
    "year": 2021,
    "month": 10,
    "day": 9,
    "title": "9 d'octubre de 1902",
    "body": " La comunidat scientifica internacional reconoixe l'autenticidat de l'arte paleolitico d'a espelunga de Altamira. Estas pinturas heban estau descubiertas per la nina Mar\u00eda Sanz de Sautuola quan visitaba la espelunga en company\u00eda de su pai Marcelino",
    "eventYear": "1902",
    "image": "https://calendario-cientifico-escolar.github.io/images/personajes/282.png"
}