{
    "lang": "eus",
    "year": 2021,
    "month": 4,
    "day": 22,
    "title": "1999/4/22",
    "body": " Logro\u00f1oko Zientzien Etxea ireki zuten. Zentro hori zientzia eta teknologiaren zabalkundeaz arduratzen da, erakusketa, konferentzia, ikastaro, proiekzio eta erakustaldi zientifikoen bitartez",
    "eventYear": "1999",
    "image": "https://calendario-cientifico-escolar.github.io/images/personajes/112.png"
}