{
    "lang": "eus",
    "year": 2021,
    "month": 8,
    "day": 19,
    "title": "1790/8/19",
    "body": " Edward John Dent erlojugilea jaio zen. Zehaztasun handiko erlojuak eta itsas kronometroak sortu zituelako da ezaguna. Londreseko Big Ben dago bere erlojurik ospetsuenen artean",
    "eventYear": "1790",
    "image": "https://calendario-cientifico-escolar.github.io/images/personajes/231.png"
}