{
    "lang": "es",
    "year": 2021,
    "month": 8,
    "day": 1,
    "title": "1 de agosto de 1920",
    "body": " Naci\u00f3 Henrietta Lacks. A los 31 a\u00f1os falleci\u00f3 por un c\u00e1ncer de c\u00e9rvix y fue donante involuntaria de sus c\u00e9lulas cancerosas. Con ellas se desarroll\u00f3 una l\u00ednea de cultivo celular inmortal llamada HeLa, acr\u00f3nimo de su nombre, con las que se han realizado decenas de miles de estudios cient\u00edficos",
    "eventYear": "1920",
    "image": "https://calendario-cientifico-escolar.github.io/images/personajes/213.png"
}