{
    "lang": "gal",
    "year": 2021,
    "month": 8,
    "day": 1,
    "title": "1 de agosto de 1920",
    "body": " Naceu Henrietta Lacks. Aos 31 anos faleceu por un cancro de colo de \u00fatero e foi doadora involuntaria das s\u00faas c\u00e9lulas cancerosas. Con elas desenvolveuse unha li\u00f1a de cultivo celular inmortal chamada HeLa, acr\u00f3nimo do seu nome, con que se realizaron decenas de miles de estudos cient\u00edficos",
    "eventYear": "1920",
    "image": "https://calendario-cientifico-escolar.github.io/images/personajes/213.png"
}