{
    "lang": "es",
    "year": 2021,
    "month": 8,
    "day": 22,
    "title": "22 de agosto de 1945",
    "body": " Falleci\u00f3 la fisi\u00f3loga Ida Henrietta Hyde. Desarroll\u00f3 un microelectrodo suficientemente potente como para estimular tejidos y lo suficientemente peque\u00f1o como para extraer tejido de una c\u00e9lula",
    "eventYear": "1945",
    "image": "https://calendario-cientifico-escolar.github.io/images/personajes/234.png"
}