{
    "lang": "gal",
    "year": 2021,
    "month": 8,
    "day": 22,
    "title": "22 de agosto de 1945",
    "body": " Faleceu a fisi\u00f3loga Ida Henrietta Hyde. Desenvolveu un microel\u00e9ctrodo suficientemente potente como para estimular tecidos e o suficientemente pequeno como para extraer tecido dunha c\u00e9lula",
    "eventYear": "1945",
    "image": "https://calendario-cientifico-escolar.github.io/images/personajes/234.png"
}