{
    "lang": "arag",
    "year": 2021,
    "month": 8,
    "day": 23,
    "title": "23 d'agosto de 1931",
    "body": " Naixe lo microbiologo Hamilton U. Smith. Recibi\u00f3 lo Premio Nobel per los suyos treballos sobre enzimas de restricci\u00f3n, capables de tallar los acidos nucleicos en puntos concretos",
    "eventYear": "1931",
    "image": "https://calendario-cientifico-escolar.github.io/images/personajes/235.png"
}