{
    "lang": "cat",
    "year": 2021,
    "month": 8,
    "day": 23,
    "title": "23 de agost de 1931",
    "body": " Va n\u00e9ixer el microbi\u00f2leg Hamilton O. Smith. Va rebre el Premi Nobel pels seus treballs sobre enzims de restricci\u00f3, capa\u00e7os de tallar els \u00e0cids nucleics en punts concrets",
    "eventYear": "1931",
    "image": "https://calendario-cientifico-escolar.github.io/images/personajes/235.png"
}