{
    "lang": "astu",
    "year": 2021,
    "month": 8,
    "day": 24,
    "title": "24 d\u2019agostu de 1890",
    "body": " Naci\u00f3 la bacteri\u00f3loga Pearl Louella Kendrick. Ye conocida por desendolcar la primer vacuna contra la tosferina. F\u00edxola en collaboraci\u00f3n cola esperta en sal\u00fa p\u00fablica Grace Eldering y la qu\u00edmica Loney Gordon",
    "eventYear": "1890",
    "image": "https://calendario-cientifico-escolar.github.io/images/personajes/236.png"
}