{
    "lang": "arag",
    "year": 2021,
    "month": 8,
    "day": 25,
    "title": "25 d'agosto de 1900",
    "body": " Naixe lo Premio Nobel Hans Adolf Krebs. Dio nombre a lo \u0093ciclo de Krebs\u0094,  una rota metabolica que permite la obtenci\u00f3n d'enerch\u00eda pa las celulas aerobias",
    "eventYear": "1900",
    "image": "https://calendario-cientifico-escolar.github.io/images/personajes/237.png"
}