{
    "lang": "cat",
    "year": 2021,
    "month": 8,
    "day": 25,
    "title": "25 de agost de 1900",
    "body": " Va n\u00e9ixer el Premi Nobel Hans Adolf Krebs. Va donar nom al cicle de Krebs, una ruta metab\u00f2lica que permet l'obtenci\u00f3 d'energia per a les c\u00e8l\u00b7lules aer\u00f2bies",
    "eventYear": "1900",
    "image": "https://calendario-cientifico-escolar.github.io/images/personajes/237.png"
}