{
    "lang": "en",
    "year": 2021,
    "month": 8,
    "day": 26,
    "title": "August 26, 1860",
    "body": " The engineer and archaeologist Luis Siret y Cels was born. He discovered the first archaeological site of the Argaric culture in the Spanish southeast. The Argaric society was one of the most important societies in Europe in the 3rd and 2nd millennium B.C.E",
    "eventYear": "1860",
    "image": "https://calendario-cientifico-escolar.github.io/images/personajes/238.png"
}