{
    "lang": "gal",
    "year": 2021,
    "month": 8,
    "day": 26,
    "title": "26 de agosto de 1860",
    "body": " Naceu o enxe\u00f1eiro e arque\u00f3logo Luis Siret y Cels. Descubriu os primeiros xacementos da cultura arg\u00e1rica no sueste espa\u00f1ol. A sociedade arg\u00e1rica foi unha das de maior relevancia na Europa do III e II milenio a.e.c",
    "eventYear": "1860",
    "image": "https://calendario-cientifico-escolar.github.io/images/personajes/238.png"
}