{
    "lang": "astu",
    "year": 2021,
    "month": 8,
    "day": 27,
    "title": "27 d\u2019agostu de 1956",
    "body": " La central nuclear de Calder Hall convirti\u00f3se na primera del Reinu Xun\u00edu en suministrar lletricid\u00e1 a la poblaci\u00f3n civil",
    "eventYear": "1956",
    "image": "https://calendario-cientifico-escolar.github.io/images/personajes/239.png"
}