{
    "lang": "arag",
    "year": 2021,
    "month": 8,
    "day": 3,
    "title": "3 d'agosto de 1958",
    "body": " Lo submarino atomico Nautilus pasa baixo la crosta chelada de l'oceano Arctico, dende l'oceano Pacifico dica l'Atlantico",
    "eventYear": "1958",
    "image": "https://calendario-cientifico-escolar.github.io/images/personajes/215.png"
}