{
    "lang": "eus",
    "year": 2021,
    "month": 8,
    "day": 3,
    "title": "1958/8/3",
    "body": " Nautilus urpekari atomikoa Ozeano Artikoko azal izoztuaren azpitik igaro zen, Ozeano Baretik Atlantikoraino",
    "eventYear": "1958",
    "image": "https://calendario-cientifico-escolar.github.io/images/personajes/215.png"
}