{
    "lang": "en",
    "year": 2021,
    "month": 8,
    "day": 4,
    "title": "August 4, 1932",
    "body": " Computer scientist Frances Elizabeth Allen was born. In 2006, she became the first woman to receive the Turing Award",
    "eventYear": "1932",
    "image": "https://calendario-cientifico-escolar.github.io/images/personajes/216.png"
}