{
    "lang": "cat",
    "year": 2021,
    "month": 8,
    "day": 5,
    "title": "5 de agost de 2013",
    "body": " Una companyia japonesa va desenvolupar una tireta reutilitzable per tractar la hipertensi\u00f3 arterial cr\u00f2nica mitjan\u00e7ant l'alliberament continu de bisoprolol",
    "eventYear": "2013",
    "image": "https://calendario-cientifico-escolar.github.io/images/personajes/217.png"
}