{
    "lang": "astu",
    "year": 2021,
    "month": 8,
    "day": 9,
    "title": "9 d\u2019agostu de 1966",
    "body": " Naci\u00f3 l\u2019investigador Glenn Postolski. Los sos trabayos nel campu de les Ciencies Sociales centr\u00e1ronse nes pol\u00edtiques de medios masivos y el derechu a la comunicaci\u00f3n",
    "eventYear": "1966",
    "image": "https://calendario-cientifico-escolar.github.io/images/personajes/221.png"
}