{
    "lang": "astu",
    "year": 2021,
    "month": 9,
    "day": 11,
    "title": "11 de setiembre de 1942",
    "body": " Naci\u00f3 la economista ya historiadora econ\u00f3mica Deirdre McCloskey. Les sos investigaciones incl\u00fain l\u2019estudiu de los or\u00edxenes del mundu modernu, el mal usu de la significaci\u00f3n estad\u00edstica na econom\u00eda y otres ciencies, y l\u2019estudiu del capitalismu",
    "eventYear": "1942",
    "image": "https://calendario-cientifico-escolar.github.io/images/personajes/254.png"
}