{
    "lang": "astu",
    "year": 2021,
    "month": 9,
    "day": 21,
    "title": "21 de setiembre de 1866",
    "body": " Naci\u00f3\u2019l m\u00e9dicu y microbi\u00f3logu Charres Nicolle. Gan\u00f3\u2019l Premiu Nobel al descubrir que los pioyos yeren los principales tresmisores del tifus",
    "eventYear": "1866",
    "image": "https://calendario-cientifico-escolar.github.io/images/personajes/264.png"
}