{
    "lang": "astu",
    "year": 2021,
    "month": 9,
    "day": 22,
    "title": "22 de setiembre de 1863",
    "body": " Naci\u00f3\u2019l microbi\u00f3logu Alexandre Yersin. Foi codescubridor de la bacteria responsable de la peste bub\u00f3nica, que se llama Yersinia pestis nel so honor",
    "eventYear": "1863",
    "image": "https://calendario-cientifico-escolar.github.io/images/personajes/265.png"
}