{
    "lang": "astu",
    "year": 2021,
    "month": 8,
    "day": 28,
    "title": "28 d\u2019agostu de 2013",
    "body": " Cultiv\u00e1ronse cerebros humanos en miniatura, del tama\u00f1u d\u2019un arbeyu, a partir de c\u00e9lules madre",
    "eventYear": "2013",
    "image": "https://calendario-cientifico-escolar.github.io/images/personajes/240.png"
}