{
    "lang": "astu",
    "year": 2021,
    "month": 8,
    "day": 31,
    "title": "31 d\u2019agostu de 1912",
    "body": " Naci\u00f3 l\u2019investigador Robert F. Borkenstein. Investig\u00f3 la influyencia del consumu d\u2019alcohol nos accidentes de tr\u00e1nsitu. Invent\u00f3 l\u2019alcohol\u00edmetru, un pres\u00e9u revolucionariu pa midir el nivel d\u2019alcohol nel aire espirao",
    "eventYear": "1912",
    "image": "https://calendario-cientifico-escolar.github.io/images/personajes/243.png"
}