{
    "lang": "es",
    "year": 2021,
    "month": 12,
    "day": 12,
    "title": "12 de diciembre de 1901",
    "body": " Guglielmo Marconi realiz\u00f3 la primera comunicaci\u00f3n radiof\u00f3nica trasatl\u00e1ntica entre Cornualles (Reino Unido) y Terranova (Canad\u00e1)",
    "eventYear": "1901",
    "image": "https://calendario-cientifico-escolar.github.io/images/personajes/346.png"
}