{
    "lang": "es",
    "year": 2021,
    "month": 12,
    "day": 20,
    "title": "20 de diciembre de 1852",
    "body": " Naci\u00f3 el bacteri\u00f3logo Kitasato Shibasabur\u014d. Fue codescubridor de la bacteria que causa la peste bub\u00f3nica y desarroll\u00f3 tratamientos para el t\u00e9tanos, la difteria y el \u00e1ntrax. Tambi\u00e9n dio nombre a un instrumento de laboratorio: el matraz kitasato",
    "eventYear": "1852",
    "image": "https://calendario-cientifico-escolar.github.io/images/personajes/354.png"
}