{
    "lang": "es",
    "year": 2021,
    "month": 12,
    "day": 25,
    "title": "25 de diciembre de 1901",
    "body": " Naci\u00f3 Richard Shope, el especialista en patolog\u00eda animal que aisl\u00f3 por primera vez un influenzavirus. Estos virus causan la gripe en aves y mam\u00edferos (incluyendo los humanos)",
    "eventYear": "1901",
    "image": "https://calendario-cientifico-escolar.github.io/images/personajes/359.png"
}