{
    "lang": "es",
    "year": 2021,
    "month": 12,
    "day": 26,
    "title": "26 de diciembre de 1780",
    "body": " Naci\u00f3 la matem\u00e1tica y astr\u00f3noma Mary Fairfax Greig Somerville. Propuso la existencia de un planeta que alteraba la \u00f3rbita de Urano. Posteriormente se demostr\u00f3 que ese planeta era Neptuno",
    "eventYear": "1780",
    "image": "https://calendario-cientifico-escolar.github.io/images/personajes/360.png"
}