{
    "lang": "gal",
    "year": 2021,
    "month": 2,
    "day": 17,
    "title": "17 de febreiro de 1874",
    "body": " Naceu a xe\u00f3loga Ida Helen Ogilvie. Descubriu propiedades da lava e os efectos da aridez sobre a erosi\u00f3n dos solos",
    "eventYear": "1874",
    "image": "https://calendario-cientifico-escolar.github.io/images/personajes/48.png"
}