{
    "lang": "gal",
    "year": 2021,
    "month": 2,
    "day": 22,
    "title": "22 de febreiro de 1876",
    "body": " Fundouse a Universidade Johns Hopkins. Foi a primeira universidade dedicada especificamente \u00e1 investigaci\u00f3n m\u00e9dica nos Estados Unidos. A s\u00faa fundaci\u00f3n foi posible grazas \u00e1 herdanza do empresario Johns Hopkins",
    "eventYear": "1876",
    "image": "https://calendario-cientifico-escolar.github.io/images/personajes/53.png"
}