{
    "lang": "gal",
    "year": 2021,
    "month": 2,
    "day": 25,
    "title": "25 de febreiro de 1869",
    "body": " Naceu o qu\u00edmico Phoebus Levene. Descubriu a desoxirribosa, un dos compo\u00f1entes principais do ADN",
    "eventYear": "1869",
    "image": "https://calendario-cientifico-escolar.github.io/images/personajes/56.png"
}