{
    "lang": "gal",
    "year": 2021,
    "month": 6,
    "day": 11,
    "title": "11 de xu\u00f1o de 1910",
    "body": " Naceu o ocean\u00f3grafo e explorador Jacques-Yves Cousteau. \u00c9 un dos divulgadores do mundo submarino m\u00e1is c\u00e9lebres. Gravou numerosas pel\u00edculas e documentais a bordo do seu buque Calypso. Tam\u00e9n foi unha das primeiras persoas en defender o ambiente mari\u00f1o fronte \u00e1 contaminaci\u00f3n",
    "eventYear": "1910",
    "image": "https://calendario-cientifico-escolar.github.io/images/personajes/162.png"
}