{
    "lang": "gal",
    "year": 2021,
    "month": 6,
    "day": 19,
    "title": "19 de xu\u00f1o de 1903",
    "body": " Naceu a bioqu\u00edmica Rebeca Gerschman. Postulou a teor\u00eda Gerschman sobre a toxicidade do os\u00edxeno mediante radicais libres e revolucionou o ambiente cient\u00edfico da \u00e9poca",
    "eventYear": "1903",
    "image": "https://calendario-cientifico-escolar.github.io/images/personajes/170.png"
}