{
    "lang": "astu",
    "year": 2021,
    "month": 7,
    "day": 30,
    "title": "30 de xunetu de 1889",
    "body": " Naci\u00f3 l\u2019inxenieru Vladimir Zworykin. Invent\u00f3\u2019l tubu de rayos cat\u00f3dicos y, por ello, con\u00f3zse-y como\u2019l padre de la televisi\u00f3n",
    "eventYear": "1889",
    "image": "https://calendario-cientifico-escolar.github.io/images/personajes/211.png"
}