{
    "lang": "cat",
    "year": 2021,
    "month": 4,
    "day": 20,
    "title": "20 de abril de 2017",
    "body": " Bryan Keith Holland va dipositar la seva tesi doctoral sobre els microARN de l'VIH. \u00c9s m\u00e9s conegut pel seu sobrenom Dexter i per ser el cantant i guitarrista de la banda punk rock The Offsprings",
    "eventYear": "2017",
    "image": "https://calendario-cientifico-escolar.github.io/images/personajes/110.png"
}