{
    "lang": "arag",
    "year": 2021,
    "month": 5,
    "day": 21,
    "title": "21 de mayo de 1921",
    "body": " Naixe lo fisico Andrei Sakharov. Particip\u00f3 en o desenrollo de bombas atomicas en os anyos 50. Mas enta debant, luit\u00f3 contra la proliferaci\u00f3n d'armas nucleyars y esti\u00f3 gualardonau con o Premio Nobel d'a Paz en 1975",
    "eventYear": "1921",
    "image": "https://calendario-cientifico-escolar.github.io/images/personajes/141.png"
}