{
    "lang": "arag",
    "year": 2021,
    "month": 5,
    "day": 3,
    "title": "3 de mayo de 1910",
    "body": " Naixe l'arqueologa Anne Strachan Robertson. Ye conoixida per los suyos estudios d'o muro de Antonino y las monedas imperials romanas",
    "eventYear": "1910",
    "image": "https://calendario-cientifico-escolar.github.io/images/personajes/123.png"
}