{
    "lang": "arag",
    "year": 2021,
    "month": 5,
    "day": 7,
    "title": "7 de mayo de 1954",
    "body": " Empecipia la construcci\u00f3n d'o Puent Mackinac en Michigan. Fue lo puent suspendiu mas largo d'o mundo en o suyo momento",
    "eventYear": "1954",
    "image": "https://calendario-cientifico-escolar.github.io/images/personajes/127.png"
}