{
    "lang": "gal",
    "year": 2021,
    "month": 9,
    "day": 10,
    "title": "10 de setembro de 1984",
    "body": " P\u00faxose a punto a t\u00e9cnica de pegada xen\u00e9tica, que permite identificar as persoas segundo o seu ADN. Esta t\u00e9cnica comezou a utilizarse en criminolox\u00eda pouco despois",
    "eventYear": "1984",
    "image": "https://calendario-cientifico-escolar.github.io/images/personajes/253.png"
}