{
    "lang": "gal",
    "year": 2021,
    "month": 9,
    "day": 18,
    "title": "18 de setembro de 1819",
    "body": " Naceu o f\u00edsico Jean Foucault. Inventou o xiroscopio e o p\u00e9ndulo que demostra a rotaci\u00f3n da Terra",
    "eventYear": "1819",
    "image": "https://calendario-cientifico-escolar.github.io/images/personajes/261.png"
}