{
    "lang": "gal",
    "year": 2021,
    "month": 9,
    "day": 27,
    "title": "27 de setembro de 1818",
    "body": " Naceu o inventor Cosme Garc\u00eda. Foi o primeiro espa\u00f1ol en patentar un prototipo de submarino. Unha vez constru\u00eddo, este somerxible foi probado con \u00e9xito no porto de Alacante en 1860",
    "eventYear": "1818",
    "image": "https://calendario-cientifico-escolar.github.io/images/personajes/270.png"
}