{
    "lang": "gal",
    "year": 2021,
    "month": 9,
    "day": 28,
    "title": "28 de setembro de 1889",
    "body": " A primeira Conferencia Xeral de Pesos e Medidas definiu a lonxitude dun metro como a distancia entre d\u00faas li\u00f1as nunha barra fabricada cunha aliaxe de platino con 10% de iridio, medida ao punto de fusi\u00f3n do xeo",
    "eventYear": "1889",
    "image": "https://calendario-cientifico-escolar.github.io/images/personajes/271.png"
}