{
    "lang": "gal",
    "year": 2021,
    "month": 9,
    "day": 8,
    "title": "8 de setembro de 1871",
    "body": " Naceu a inventora e pianista Mary Elizabeth Hallock-Greenewalt. As s\u00faas patentes permitiron o desenvolvemento de Sarabet, un \u00f3rgano de cor. Este instrumento emit\u00eda luces de cores con intensidades e matices que estaban sincronizadas coa m\u00fasica",
    "eventYear": "1871",
    "image": "https://calendario-cientifico-escolar.github.io/images/personajes/251.png"
}