{
    "lang": "cat",
    "year": 2021,
    "month": 11,
    "day": 22,
    "title": "22 de novembre de 2013",
    "body": " Un equip d'investigaci\u00f3 de la Universitat de Bonn va descobrir un gen d'origen neandertal en persones actuals. Es tracta d'un gen de la immunitat que permet recon\u00e8ixer intrusos perillosos i defensar-se davant ells mitjan\u00e7ant una resposta immune",
    "eventYear": "2013",
    "image": "https://calendario-cientifico-escolar.github.io/images/personajes/326.png"
}