{
    "lang": "cat",
    "year": 2021,
    "month": 11,
    "day": 29,
    "title": "29 de novembre de 1926",
    "body": " Va n\u00e9ixer l'astr\u00f2noma Dilhan Eryurt. El seu treball va proporcionar informaci\u00f3 crucial a la NASA per modelar l'impacte solar en l'entorn lunar. Va ser premiada per la seva contribuci\u00f3 a l'allunatge de l'Apollo 11",
    "eventYear": "1926",
    "image": "https://calendario-cientifico-escolar.github.io/images/personajes/333.png"
}