{
    "lang": "cat",
    "year": 2021,
    "month": 10,
    "day": 15,
    "title": "15 de octubre de 1902",
    "body": " Va n\u00e9ixer la m\u00e8dica Amparo Poch y Gasc\u00f3n. Es va especialitzar en puericultura i va realitzar una gran tasca educativa entre les classes socials m\u00e9s modestes per evitar malalties de tipus veneri",
    "eventYear": "1902",
    "image": "https://calendario-cientifico-escolar.github.io/images/personajes/288.png"
}