{
    "lang": "en",
    "year": 2021,
    "month": 3,
    "day": 19,
    "title": "March 19, 2019",
    "body": " An international study with the participation of the CSIC determined that oceans absorb 31% of the CO2 produced by human activity",
    "eventYear": "2019",
    "image": "https://calendario-cientifico-escolar.github.io/images/personajes/78.png"
}