{
    "lang": "en",
    "year": 2021,
    "month": 3,
    "day": 27,
    "title": "March 27, 1827",
    "body": " Charles Darwin, aged 18, presented his first scientific discovery. It was about the biology of small marine animals",
    "eventYear": "1827",
    "image": "https://calendario-cientifico-escolar.github.io/images/personajes/86.png"
}