{
    "lang": "eus",
    "year": 2021,
    "month": 5,
    "day": 11,
    "title": "2011/5/11",
    "body": " Murtziako Lorca herrian lurrikara bat izan zen, 5,2 Mw-ko magnitudearekin. Inpaktu handia eragin zuen, eta 9 hildako eta kalte material izugarriak izan ziren",
    "eventYear": "2011",
    "image": "https://calendario-cientifico-escolar.github.io/images/personajes/131.png"
}