{
    "lang": "eus",
    "year": 2021,
    "month": 5,
    "day": 26,
    "title": "1872/5/26",
    "body": " Trinidad Arroyo Villaverde jaio zen. Espainiako lehen oftalmologoa izan zen",
    "eventYear": "1872",
    "image": "https://calendario-cientifico-escolar.github.io/images/personajes/146.png"
}