{
    "lang": "eus",
    "year": 2021,
    "month": 5,
    "day": 5,
    "title": "1882/5/5",
    "body": " P\u00edo del R\u00edo Ortega mediku eta zientzialari espainiarra jaio zen. Mikroglia aurkitu zuen, nerbio-sistemaren zelula mota bat",
    "eventYear": "1882",
    "image": "https://calendario-cientifico-escolar.github.io/images/personajes/125.png"
}