{
    "lang": "eus",
    "year": 2021,
    "month": 5,
    "day": 6,
    "title": "1840/5/6",
    "body": " Lehen postako zigilu itsasgarria salgai jarri zen. Erresuma Batuko Victoria erreginaren soslaia erakusten zuen, eta \"penny black\" deitzen zioten",
    "eventYear": "1840",
    "image": "https://calendario-cientifico-escolar.github.io/images/personajes/126.png"
}