{
    "lang": "eus",
    "year": 2021,
    "month": 5,
    "day": 7,
    "title": "1954/5/7",
    "body": " Michiganen, Mackinac zubiaren eraikuntza hasi zen. Bere garaian, munduko zubi esekirik luzeena izan zen",
    "eventYear": "1954",
    "image": "https://calendario-cientifico-escolar.github.io/images/personajes/127.png"
}