{
    "lang": "eus",
    "year": 2021,
    "month": 5,
    "day": 8,
    "title": "1980/5/8",
    "body": " OMEk baztangaren desagerrarazpena ziurtatu zuen. Mugarri hori txertaketari esker lortu zen",
    "eventYear": "1980",
    "image": "https://calendario-cientifico-escolar.github.io/images/personajes/128.png"
}