{
    "lang": "gal",
    "year": 2021,
    "month": 1,
    "day": 20,
    "title": "20 de xaneiro de 1944",
    "body": " Fundouse a Estaci\u00f3n de Biolox\u00eda Experimental de Cogullada (co\u00f1ecida actualmente como Estaci\u00f3n Experimental de Aula Dei). O obxectivo deste instituto do CSIC \u00e9 mellorar a competitividade e sostibilidade do sector agr\u00edcola",
    "eventYear": "1944",
    "image": "https://calendario-cientifico-escolar.github.io/images/personajes/20.png"
}