{
    "lang": "gal",
    "year": 2021,
    "month": 1,
    "day": 22,
    "title": "22 de xaneiro de 1909",
    "body": " Naceu o farmac\u00e9utico e bi\u00f3logo Faustino Cord\u00f3n. As s\u00faas investigaci\u00f3ns estiveron centradas no campo da evoluci\u00f3n. En 1979 creou a Fundaci\u00f3n para a Investigaci\u00f3n sobre a Biolox\u00eda Evolucionista",
    "eventYear": "1909",
    "image": "https://calendario-cientifico-escolar.github.io/images/personajes/22.png"
}