{
    "lang": "cat",
    "year": 2021,
    "month": 9,
    "day": 13,
    "title": "13 de setembre de 1956",
    "body": " L'empresa IBM va presentar el primer ordinador comercial que utilitzava emmagatzematge en disc",
    "eventYear": "1956",
    "image": "https://calendario-cientifico-escolar.github.io/images/personajes/256.png"
}