{
    "lang": "eus",
    "year": 2021,
    "month": 9,
    "day": 15,
    "title": "1885/9/15",
    "body": " Constantin Fahlbergek sakarina patentatu zuen. Gozagarri hori lehen aldiz sintetizatu zen harrikatz-mundrunaren deribatuetatik abiatuta",
    "eventYear": "1885",
    "image": "https://calendario-cientifico-escolar.github.io/images/personajes/258.png"
}