{
    "lang": "astu",
    "year": 2021,
    "month": 9,
    "day": 16,
    "title": "16 de setiembre de 1884",
    "body": " F\u00edxose la primer operaci\u00f3n baxo anestesia local. Gracies al so \u00e9xitu, empecipi\u00f3\u2019l so usu xeneraliz\u00e1u n\u2019odontolox\u00eda",
    "eventYear": "1884",
    "image": "https://calendario-cientifico-escolar.github.io/images/personajes/259.png"
}