{
    "lang": "arag",
    "year": 2021,
    "month": 9,
    "day": 16,
    "title": "16 de setiembre de 1884",
    "body": " Se fa la primer operaci\u00f3n baixo anestesia local. Gracias a lo suyo exito, va prencipiar lo suyo uso cheneralizau en odontoloch\u00eda",
    "eventYear": "1884",
    "image": "https://calendario-cientifico-escolar.github.io/images/personajes/259.png"
}