{
    "lang": "eus",
    "year": 2021,
    "month": 9,
    "day": 16,
    "title": "1884/9/16",
    "body": " Anestesia lokalaren eraginpeko lehen ebakuntza egin zen. Arrakasta izan zuenez, haren erabilera odontologian orokortu zen",
    "eventYear": "1884",
    "image": "https://calendario-cientifico-escolar.github.io/images/personajes/259.png"
}