{
    "lang": "es",
    "year": 2021,
    "month": 9,
    "day": 24,
    "title": "24 de septiembre de 1905",
    "body": " Naci\u00f3 el m\u00e9dico y cient\u00edfico espa\u00f1ol Severo Ochoa. Gan\u00f3 el Premio Nobel por sus estudios pioneros sobre la s\u00edntesis del \u00e1cido ribonucleico (ARN)",
    "eventYear": "1905",
    "image": "https://calendario-cientifico-escolar.github.io/images/personajes/267.png"
}