{
    "lang": "astu",
    "year": 2021,
    "month": 9,
    "day": 27,
    "title": "27 de setiembre de 1818",
    "body": " Naci\u00f3 l\u2019inventor Cosme Garc\u00eda. Foi\u2019l primer espa\u00f1ol en patentar un prototipu de submar\u00edn. En construy\u00e9ndose, esti sumerxible prob\u00f3se con \u00e9xitu nel puertu d\u2019Alicante en 1860",
    "eventYear": "1818",
    "image": "https://calendario-cientifico-escolar.github.io/images/personajes/270.png"
}