{
    "lang": "arag",
    "year": 2021,
    "month": 9,
    "day": 28,
    "title": "28 de setiembre de 1889",
    "body": " La primer Conferencia Cheneral de Pesos y Midas define la longaria d'un metro como la distancia entre dos linias en una barra fabricada con una aleaci\u00f3n de platino con 10% de iridio, medida en o punto de fusi\u00f3n d'o chelo",
    "eventYear": "1889",
    "image": "https://calendario-cientifico-escolar.github.io/images/personajes/271.png"
}