{
    "lang": "es",
    "year": 2021,
    "month": 9,
    "day": 28,
    "title": "28 de septiembre de 1889",
    "body": " La primera Conferencia General de Pesos y Medidas defini\u00f3 la longitud de un metro como la distancia entre dos l\u00edneas en una barra fabricada con una aleaci\u00f3n de platino con 10% de iridio, medida al punto de fusi\u00f3n del hielo",
    "eventYear": "1889",
    "image": "https://calendario-cientifico-escolar.github.io/images/personajes/271.png"
}