{
    "lang": "en",
    "year": 2021,
    "month": 9,
    "day": 29,
    "title": "September 29, 1938",
    "body": " Physicist Enrico Fermi was born. In 1938, he received the Nobel Prize in Physics for his work on induced radioactivity. Four years later, he carried out the first nuclear reaction of human origin",
    "eventYear": "1938",
    "image": "https://calendario-cientifico-escolar.github.io/images/personajes/272.png"
}