{
    "lang": "arag",
    "year": 2021,
    "month": 9,
    "day": 2,
    "title": "2 de setiembre de 1948",
    "body": " Naixe la profesora de secundaria Christa Corrigan McAuliffe. Va estar triada entre mas d'11.000 solicitants pa participar en o Prochecto \u00abProfesor en o Espacio\u00bb d'a NASA. Christa heba planiau de fer experimentos y amostrar licions dende lo espacio. Lo transbordador espacial en o qual viachaba va esclatar a los 72 segundos d'o despegue",
    "eventYear": "1948",
    "image": "https://calendario-cientifico-escolar.github.io/images/personajes/245.png"
}