{
    "lang": "arag",
    "year": 2021,
    "month": 9,
    "day": 30,
    "title": "30 de setiembre de 2009",
    "body": " L'Observatorio Astronomico de Mallorca anuncia lo descubrimiento d'a cometa '2009QG31 La Sagra', dill\u00e1 d'a orbita de Marte",
    "eventYear": "2009",
    "image": "https://calendario-cientifico-escolar.github.io/images/personajes/273.png"
}