{
    "lang": "es",
    "year": 2021,
    "month": 9,
    "day": 30,
    "title": "30 de septiembre de 2009",
    "body": " El Observatorio Astron\u00f3mico de Mallorca anunci\u00f3 el descubrimiento del cometa '2009QG31 La Sagra', m\u00e1s all\u00e1 de la \u00f3rbita de Marte",
    "eventYear": "2009",
    "image": "https://calendario-cientifico-escolar.github.io/images/personajes/273.png"
}