{
    "lang": "eus",
    "year": 2021,
    "month": 9,
    "day": 3,
    "title": "1938/9/3",
    "body": " Ry\u014dji Noyori kimikaria jaio zen. Nobel Saria irabazi zuen katalisiari buruz egin zituen ikerketengatik. Besteak beste, mentola sortzeko erabiltzen dira haren metodoak",
    "eventYear": "1938",
    "image": "https://calendario-cientifico-escolar.github.io/images/personajes/246.png"
}