{
    "lang": "eus",
    "year": 2021,
    "month": 9,
    "day": 4,
    "title": "1998/9/4",
    "body": " Larry Pagek eta Sergei Brinek Google sortu zuten. Bilatzailea 1996an garatzen hasi zen ikerketa-proiektu baten antzera, biak doktoregoa ikasten ari zirela",
    "eventYear": "1998",
    "image": "https://calendario-cientifico-escolar.github.io/images/personajes/247.png"
}