{
    "lang": "en",
    "year": 2021,
    "month": 9,
    "day": 6,
    "title": "September 6, 1860",
    "body": " Sociologist and Nobel Peace Prize winner Jane Addams was born. She pioneered the profession of social work and founded the Hull House foster home, which also served as a sociological institution for women. Her works had a great influence on the Chicago school of sociology",
    "eventYear": "1860",
    "image": "https://calendario-cientifico-escolar.github.io/images/personajes/249.png"
}