{
    "lang": "cat",
    "year": 2021,
    "month": 6,
    "day": 24,
    "title": "24 de juny de 1400",
    "body": " Va n\u00e9ixer Johannes Gutenberg. Va inventar la impremta amb tipus m\u00f2bils moderna",
    "eventYear": "1400",
    "image": "https://calendario-cientifico-escolar.github.io/images/personajes/175.png"
}