{
    "lang": "eus",
    "year": 2021,
    "month": 12,
    "day": 15,
    "title": "2010/12/15",
    "body": " Malaspina Zirkumnabigazio Espedizioa abiatu zen. Hesp\u00e9rides eta Sarmiento de Gamboa (CSIC) ontziek munduari bira eman zioten, ikerketa zientifikoak egiteko, ikertzaile gazteak trebatzeko eta itsas zientziak sustatzeko. XVIII. mendean Alejandro Malaspinak zuzendu zuen espedizioaren omenez jarri zioten izen hori",
    "eventYear": "2010",
    "image": "https://calendario-cientifico-escolar.github.io/images/personajes/349.png"
}