{
    "lang": "eus",
    "year": 2021,
    "month": 12,
    "day": 16,
    "title": "1954/12/16",
    "body": " Tracy Hallek lehen diamante sintetikoak sortu zituen General Electrics-en laborategietan",
    "eventYear": "1954",
    "image": "https://calendario-cientifico-escolar.github.io/images/personajes/350.png"
}