{
    "lang": "cat",
    "year": 2021,
    "month": 12,
    "day": 17,
    "title": "17 de desembre de 2014",
    "body": " Un estudi de l'IGME i les Universitats de Barcelona i Harvard va demostrar l'exist\u00e8ncia de gambes de terra a \u00c0laba. Aquests crustacis van viure fa 105 milions d'anys i van quedar conservats en ambre",
    "eventYear": "2014",
    "image": "https://calendario-cientifico-escolar.github.io/images/personajes/351.png"
}