{
    "lang": "eus",
    "year": 2021,
    "month": 12,
    "day": 17,
    "title": "2014/12/17",
    "body": " IGMEko eta Bartzelonako eta Harvardeko Unibertsitateetako azterlan batek, Araban \"lurreko ganbak\" zeudela frogatu zuen. Krustazeo horiek orain 105 milioi urte bizi izan ziren, eta anbarrean kontserbatu ziren",
    "eventYear": "2014",
    "image": "https://calendario-cientifico-escolar.github.io/images/personajes/351.png"
}