{
    "lang": "cat",
    "year": 2021,
    "month": 12,
    "day": 19,
    "title": "19 de desembre de 2016",
    "body": " La revista Nature va nomenar a Alexandra Elbakyan una de les deu persones m\u00e9s destacades de l'any en ci\u00e8ncia. Alexandra \u00e9s la fundadora de Sci-Hub, una p\u00e0gina web amb acc\u00e9s gratu\u00eft a milions d'articles cient\u00edfics",
    "eventYear": "2016",
    "image": "https://calendario-cientifico-escolar.github.io/images/personajes/353.png"
}