{
    "lang": "gal",
    "year": 2021,
    "month": 12,
    "day": 20,
    "title": "20 de decembro de 1852",
    "body": " Naceu o bacteri\u00f3logo Kitasato Shibasabur\u014d. Foi codescubridor da bacteria que causa a peste bub\u00f3nica e desenvolveu tratamentos para o t\u00e9tanos, a difteria e o \u00e1ntrax. Tam\u00e9n deu nome a un instrumento de laboratorio: o matraz kitasato",
    "eventYear": "1852",
    "image": "https://calendario-cientifico-escolar.github.io/images/personajes/354.png"
}