{
    "lang": "cat",
    "year": 2021,
    "month": 12,
    "day": 22,
    "title": "22 de desembre de 1882",
    "body": " Edward Hibberd Johnson es va convertir en la primera persona al m\u00f3n que va adornar el seu arbre nadalenc amb llums el\u00e8ctriques. En aquesta \u00e8poca, era habitual utilitzar espelmes, el que provocava nombrosos incendis",
    "eventYear": "1882",
    "image": "https://calendario-cientifico-escolar.github.io/images/personajes/356.png"
}