{
    "lang": "astu",
    "year": 2021,
    "month": 12,
    "day": 26,
    "title": "26 d\u2019avientu de 1780",
    "body": " Naci\u00f3 la matem\u00e1tica y astr\u00f3noma Mary Fairfax Greig Somerville. Propunxo la esistencia d\u2019un planeta qu\u2019alteriaba la \u00f3rbita d\u2019Uranu. Demostr\u00f3se darr\u00e9u qu\u2019esi planeta yera Neptunu",
    "eventYear": "1780",
    "image": "https://calendario-cientifico-escolar.github.io/images/personajes/360.png"
}