{
    "lang": "eus",
    "year": 2021,
    "month": 12,
    "day": 26,
    "title": "1780/12/26",
    "body": " Mary Fairfax Greig Somerville matematikari eta astronomoa jaio zen. Uranoren orbita aldarazten zuen planeta bat zegoela proposatu zuen. Ondoren, planeta hori Neptuno zela frogatu zen",
    "eventYear": "1780",
    "image": "https://calendario-cientifico-escolar.github.io/images/personajes/360.png"
}