{
    "lang": "arag",
    "year": 2021,
    "month": 12,
    "day": 28,
    "title": "28 d'aviento de 1956",
    "body": " Naixe la fisica Teresa Rodrigo Anoro. Va representar un paper important en o descubrimiento d'o bos\u00f3n de Higgs en l'anyo 2012. Va estar directora de l'Instituto de Fisica de Cantabria y va fer parte d'o Comit\u00e9 de Politica Scientifica d'o CERN",
    "eventYear": "1956",
    "image": "https://calendario-cientifico-escolar.github.io/images/personajes/362.png"
}