{
    "lang": "astu",
    "year": 2021,
    "month": 12,
    "day": 29,
    "title": "29 d\u2019avientu de 1800",
    "body": " Naci\u00f3 l\u2019inventor Charles Goodyear. Descubri\u00f3'l procesu de vulcanizaci\u00f3n del cauchu, colo que se faen los neum\u00e1ticos",
    "eventYear": "1800",
    "image": "https://calendario-cientifico-escolar.github.io/images/personajes/363.png"
}