{
    "lang": "astu",
    "year": 2021,
    "month": 12,
    "day": 2,
    "title": "2 d\u2019avientu de 1942",
    "body": " Enrico Fermi punxo en funcionamientu la Chicago Pile-1, el primer reactor nuclear artificial del mundu. El reactor taba form\u00e1u por una pila d\u2019uraniu y bloques de grafitu",
    "eventYear": "1942",
    "image": "https://calendario-cientifico-escolar.github.io/images/personajes/336.png"
}