{
    "lang": "cat",
    "year": 2021,
    "month": 12,
    "day": 2,
    "title": "2 de desembre de 1942",
    "body": " Enrico Fermi va posar en funcionament la Chicago Pile-1, el primer reactor nuclear artificial del m\u00f3n. El reactor estava format per una pila d'urani i blocs de grafit",
    "eventYear": "1942",
    "image": "https://calendario-cientifico-escolar.github.io/images/personajes/336.png"
}