{
    "lang": "es",
    "year": 2021,
    "month": 12,
    "day": 31,
    "title": "31 de diciembre de 2019",
    "body": " La Oficina de la OMS en China recibi\u00f3 un aviso de varios casos de neumon\u00eda de causa desconocida en la ciudad de Wuhan. Posteriormente, se determin\u00f3 que el causante de la enfermedad era el coronavirus SARS-CoV-2",
    "eventYear": "2019",
    "image": "https://calendario-cientifico-escolar.github.io/images/personajes/365.png"
}