{
    "lang": "en",
    "year": 2021,
    "month": 12,
    "day": 31,
    "title": "December 31, 2019",
    "body": " The WHO China Office received a notice of several cases of pneumonia of unknown cause in the city of Wuhan. Later, it was determined that the cause of the disease was the SARS-CoV-2 coronavirus",
    "eventYear": "2019",
    "image": "https://calendario-cientifico-escolar.github.io/images/personajes/365.png"
}