{
    "lang": "gal",
    "year": 2021,
    "month": 12,
    "day": 3,
    "title": "3 de decembro de 1842",
    "body": " Naceu a qu\u00edmica e ec\u00f3loga Ellen Swallow Richards. Foi unha das fundadoras da hixiene ambiental, fase previa \u00e1 ecolox\u00eda moderna",
    "eventYear": "1842",
    "image": "https://calendario-cientifico-escolar.github.io/images/personajes/337.png"
}