{
    "lang": "es",
    "year": 2021,
    "month": 12,
    "day": 4,
    "title": "4 de diciembre de 1844",
    "body": " Naci\u00f3 Augusto Arcim\u00eds. Fue el primer meteor\u00f3logo profesional espa\u00f1ol y el primer director del Instituto Central Meteorol\u00f3gico (ahora Agencia Estatal de Meteorolog\u00eda)",
    "eventYear": "1844",
    "image": "https://calendario-cientifico-escolar.github.io/images/personajes/338.png"
}