{
    "lang": "es",
    "year": 2021,
    "month": 12,
    "day": 9,
    "title": "9 de diciembre de 1979",
    "body": " Se erradic\u00f3 por primera vez una enfermedad. Fue la viruela y se logr\u00f3 gracias a la vacunaci\u00f3n",
    "eventYear": "1979",
    "image": "https://calendario-cientifico-escolar.github.io/images/personajes/343.png"
}