{
    "lang": "astu",
    "year": 2021,
    "month": 3,
    "day": 19,
    "title": "19 de marzu de 2019",
    "body": " Un estudiu internacional con participaci\u00f3n del CSIC determin\u00f3 que los oc\u00e9anos absuerben el 31% del CO2 produc\u00edo pola activid\u00e1 humana",
    "eventYear": "2019",
    "image": "https://calendario-cientifico-escolar.github.io/images/personajes/78.png"
}