{
    "lang": "astu",
    "year": 2021,
    "month": 3,
    "day": 2,
    "title": "2 de marzu de 1922",
    "body": " Naci\u00f3 la programadora Frances Bilas Spence. Foi una de les seis programadores orixinales de la primer computadora dixital de prop\u00f3situ xeneral ENIAC",
    "eventYear": "1922",
    "image": "https://calendario-cientifico-escolar.github.io/images/personajes/61.png"
}