{
    "lang": "astu",
    "year": 2021,
    "month": 3,
    "day": 20,
    "title": "20 de marzu de 2021",
    "body": " D\u00eda Mundal del Gorri\u00f3n. Esta iniciativa busca llamar l\u2019atenci\u00f3n sobre la situaci\u00f3n de los gorriones. La so poblaci\u00f3n sufre un importante descensu, especialmente nes ciudaes",
    "eventYear": "2021",
    "image": "https://calendario-cientifico-escolar.github.io/images/personajes/79.png"
}