{
    "lang": "astu",
    "year": 2021,
    "month": 3,
    "day": 6,
    "title": "6 de marzu de 1937",
    "body": " Naci\u00f3 la inxeniera y cosmonauta Valentina Tereshkova. Foi la primer muyer que viax\u00f3 al espaciu esterior, a bordu de la nave Vostok 6",
    "eventYear": "1937",
    "image": "https://calendario-cientifico-escolar.github.io/images/personajes/65.png"
}