{
    "lang": "en",
    "year": 2021,
    "month": 8,
    "day": 14,
    "title": "August 14, 1777",
    "body": " Hans Christian Oersted was born. He was the physicist who discovered electromagnetism",
    "eventYear": "1777",
    "image": "https://calendario-cientifico-escolar.github.io/images/personajes/226.png"
}