{
    "lang": "en",
    "year": 2021,
    "month": 8,
    "day": 5,
    "title": "August 5, 2013",
    "body": " A Japanese company developed a reusable plaster to treat chronic high blood pressure by the continuous release of bisoprolol",
    "eventYear": "2013",
    "image": "https://calendario-cientifico-escolar.github.io/images/personajes/217.png"
}