{
    "lang": "gal",
    "year": 2021,
    "month": 3,
    "day": 13,
    "title": "13 de marzo de 1988",
    "body": " Inaugurouse o t\u00fanel Seikan entre as cidades de Aomori e Hakodate (Xap\u00f3n). \u00c9 o t\u00fanel submarino m\u00e1is longo do mundo",
    "eventYear": "1988",
    "image": "https://calendario-cientifico-escolar.github.io/images/personajes/72.png"
}