{
    "lang": "en",
    "year": 2021,
    "month": 12,
    "day": 1,
    "title": "December 1, 1913",
    "body": " Psychologist Mary Ainsworth was born. Together with John Bowlby, they developed the attachment theory",
    "eventYear": "1913",
    "image": "https://calendario-cientifico-escolar.github.io/images/personajes/335.png"
}