{
    "lang": "en",
    "year": 2021,
    "month": 12,
    "day": 30,
    "title": "December 30, 1930",
    "body": " Chemist and pharmacist Youyou Tu was born. She received the Nobel Prize for discovering a new therapy against malaria",
    "eventYear": "1930",
    "image": "https://calendario-cientifico-escolar.github.io/images/personajes/364.png"
}