{
    "lang": "cat",
    "year": 2021,
    "month": 8,
    "day": 11,
    "title": "11 de agost de 1858",
    "body": " Va n\u00e9ixer el Premi Nobel Christiaan Eijkman. \u00c9s conegut per ser el descobridor de la import\u00e0ncia de les vitamines en la dieta. Va descobrir la vitamina B1",
    "eventYear": "1858",
    "image": "https://calendario-cientifico-escolar.github.io/images/personajes/223.png"
}