{
    "lang": "cat",
    "year": 2021,
    "month": 8,
    "day": 22,
    "title": "22 de agost de 1945",
    "body": " Va morir la fisiol\u00f2gica Ida Henrietta Hyde. Va desenvolupar un microel\u00e8ctrode prou potent per a estimular teixits i prou petit per a extreure teixit d'una c\u00e8l\u00b7lula",
    "eventYear": "1945",
    "image": "https://calendario-cientifico-escolar.github.io/images/personajes/234.png"
}