{
    "lang": "cat",
    "year": 2021,
    "month": 8,
    "day": 26,
    "title": "26 de agost de 1860",
    "body": " Va n\u00e9ixer l'enginyer i arque\u00f2leg Luis Siret y Cels. Va descobrir els primers jaciments de la cultura arg\u00e0rica al sud-est espanyol. La societat arg\u00e0rica va ser una de les de major rellev\u00e0ncia a l'Europa del III i II mil\u00b7lenni a.e.c",
    "eventYear": "1860",
    "image": "https://calendario-cientifico-escolar.github.io/images/personajes/238.png"
}