{
    "lang": "eus",
    "year": 2021,
    "month": 3,
    "day": 25,
    "title": "1914/3/25",
    "body": " Norman Borlaug agronomoa jaio zen. \"Iraultza berdearen aita\" izendatu zuten, eta Bakearen Nobel Saria jaso zuen Mexikoko, Pakistango eta Indiako nekazaritza-produkzioan hazi hibridoak sartzeko egin zituen ahaleginengatik. Horri esker, nekazaritza-produktibitateak gora egin zuen, eta milioika giza bizitza salbatu ziren",
    "eventYear": "1914",
    "image": "https://calendario-cientifico-escolar.github.io/images/personajes/84.png"
}