{
    "lang": "eus",
    "year": 2021,
    "month": 3,
    "day": 6,
    "title": "1937/3/6",
    "body": " Valentina Tereshkova ingeniari eta kosmonauta jaio zen. Vostok 6 ontzian, kanpo-espaziora bidaiatu zuen lehen emakumea izan zen",
    "eventYear": "1937",
    "image": "https://calendario-cientifico-escolar.github.io/images/personajes/65.png"
}