{
    "lang": "arag",
    "year": 2021,
    "month": 2,
    "day": 16,
    "title": "16 de febrero de 2005",
    "body": " Dentra en vigor lo Protocolo de Kioto, convenio mundial pa reducir las emisions de gases d'efecto hibernadero",
    "eventYear": "2005",
    "image": "https://calendario-cientifico-escolar.github.io/images/personajes/47.png"
}