{
    "lang": "arag",
    "year": 2021,
    "month": 2,
    "day": 4,
    "title": "4 de febrero de 1896",
    "body": " Thaddeus Cahill solicita la patent d'o telharmonio, lo primer estrumento musical enterament electronico y polifonico. Lo primer prototipo pesaba 200 toneladas y teneba 18 metros de largaria",
    "eventYear": "1896",
    "image": "https://calendario-cientifico-escolar.github.io/images/personajes/35.png"
}