{
    "lang": "gal",
    "year": 2021,
    "month": 11,
    "day": 5,
    "title": "5 de novembro de 1794",
    "body": " A qu\u00edmica Elizabeth Fulhame publicou \"Un ensaio sobre a combusti\u00f3n\". Foi o primeiro exemplo de cat\u00e1lise que se describiu",
    "eventYear": "1794",
    "image": "https://calendario-cientifico-escolar.github.io/images/personajes/309.png"
}