{
    "lang": "gal",
    "year": 2021,
    "month": 11,
    "day": 8,
    "title": "8 de novembro de 1878",
    "body": " Naceu a paleont\u00f3loga e zo\u00f3loga Dorothea Bate. Foi pioneira en zooarqueolox\u00eda e, xunto a Dorothy Garrod, atoparon os restos f\u00f3siles de numerosas especies que non foran descritas",
    "eventYear": "1878",
    "image": "https://calendario-cientifico-escolar.github.io/images/personajes/312.png"
}