{
    "lang": "cat",
    "year": 2021,
    "month": 5,
    "day": 1,
    "title": "1 de maig de 2013",
    "body": " Va arrencar el projecte EMTASY per determinar el mecanisme que posiciona el cor a l'esquerra. Va ser dirigit per \u00c1ngela Nieto Toledano i va ajudar a entendre moltes malformacions cong\u00e8nites",
    "eventYear": "2013",
    "image": "https://calendario-cientifico-escolar.github.io/images/personajes/121.png"
}