{
    "lang": "cat",
    "year": 2021,
    "month": 5,
    "day": 11,
    "title": "11 de maig de 2011",
    "body": " Va tenir lloc un terratr\u00e8mol a Lorca (Murcia) amb una magnitud de 5,2 Mw. Va causar un gran impacte, amb 9 v\u00edctimes mortals i quantiosos danys materials",
    "eventYear": "2011",
    "image": "https://calendario-cientifico-escolar.github.io/images/personajes/131.png"
}