{
    "lang": "cat",
    "year": 2021,
    "month": 5,
    "day": 12,
    "title": "12 de maig de 1910",
    "body": " Va n\u00e9ixer la Premi Nobel Dorothy Crowfoot Hodgkin. Va determinar l'estructura 3D de mol\u00e8cules com la penicil\u00b7lina o la insulina. L'estructura 3D \u00e9s clau per entendre les funcions",
    "eventYear": "1910",
    "image": "https://calendario-cientifico-escolar.github.io/images/personajes/132.png"
}