{
    "lang": "cat",
    "year": 2021,
    "month": 5,
    "day": 19,
    "title": "19 de maig de 2014",
    "body": " La NASA va comen\u00e7ar la construcci\u00f3 del robot espacial InSight, que va aterrar a Mart el 2018",
    "eventYear": "2014",
    "image": "https://calendario-cientifico-escolar.github.io/images/personajes/139.png"
}