{
    "lang": "cat",
    "year": 2021,
    "month": 2,
    "day": 17,
    "title": "17 de febrer de 1874",
    "body": " Va n\u00e9ixer la ge\u00f2loga Ida Helen Ogilvie. Va descobrir propietats de la lava i els efectes de l'aridesa sobre l'erosi\u00f3 dels s\u00f2ls",
    "eventYear": "1874",
    "image": "https://calendario-cientifico-escolar.github.io/images/personajes/48.png"
}