{
    "lang": "cat",
    "year": 2021,
    "month": 2,
    "day": 19,
    "title": "19 de febrer de 1878",
    "body": " Thomas A. Edison va patentar el fon\u00f2graf",
    "eventYear": "1878",
    "image": "https://calendario-cientifico-escolar.github.io/images/personajes/50.png"
}