{
    "lang": "cat",
    "year": 2021,
    "month": 2,
    "day": 25,
    "title": "25 de febrer de 1869",
    "body": " Va n\u00e9ixer el qu\u00edmic Phoebus Levene. Va descobrir la desoxiribosa, un dels components principals de l'ADN",
    "eventYear": "1869",
    "image": "https://calendario-cientifico-escolar.github.io/images/personajes/56.png"
}