{
    "lang": "arag",
    "year": 2021,
    "month": 1,
    "day": 4,
    "title": "4 de chinero de 1963",
    "body": " Naixe la neuroscientifica May-Britt Moser. Va recibir un Premio Nobel per la suya investigaci\u00f3n sobre las celulas de ret que se troban en o cerebro",
    "eventYear": "1963",
    "image": "https://calendario-cientifico-escolar.github.io/images/personajes/4.png"
}