{
    "lang": "astu",
    "year": 2021,
    "month": 11,
    "day": 10,
    "title": "10 de payares de 1983",
    "body": " L\u2019estudiante de doctor\u00e1u Fred Cohen cre\u00f3 un programa inform\u00e1ticu que ye pa instalase a sigo mesmu, retrucar y espardese a otres m\u00e1quines. Naci\u00f3 asina\u2019l primer virus inform\u00e1ticu",
    "eventYear": "1983",
    "image": "https://calendario-cientifico-escolar.github.io/images/personajes/314.png"
}