{
    "lang": "astu",
    "year": 2021,
    "month": 11,
    "day": 26,
    "title": "26 de payares de 1857",
    "body": " Naci\u00f3\u2019l lling\u00fcista Ferdinand de Saussure. Ye reconoc\u00edu como\u2019l pioneru de la lling\u00fc\u00edstica cient\u00edfica",
    "eventYear": "1857",
    "image": "https://calendario-cientifico-escolar.github.io/images/personajes/330.png"
}