{
    "lang": "astu",
    "year": 2021,
    "month": 11,
    "day": 4,
    "title": "4 de payares de 2008",
    "body": " Un equipu d\u2019investigaci\u00f3n del IXME di\u00f3 a conocer el xacimientu d\u2019\u00e1mbare cret\u00e1cico d\u2019El Soplao. Tien una dimensi\u00f3n y bayuraa esceicionales y el so \u00e1mbare azul-p\u00farpura amuesa una lluminiscencia ensin comparanza nel mundu",
    "eventYear": "2008",
    "image": "https://calendario-cientifico-escolar.github.io/images/personajes/308.png"
}