{
    "lang": "es",
    "year": 2021,
    "month": 6,
    "day": 16,
    "title": "16 de junio de 1963",
    "body": " La cosmonauta Valentina Tereshkova fue la primera mujer en viajar al espacio",
    "eventYear": "1963",
    "image": "https://calendario-cientifico-escolar.github.io/images/personajes/167.png"
}