{
    "lang": "arag",
    "year": 2021,
    "month": 7,
    "day": 11,
    "title": "11 de chuliol de 1901",
    "body": " Naixe la neurofisiologa Ang\u00e9lique Arvanitaki. En chunto a Nick Chalazonitis investig\u00f3 l'actividat electrica d'as neuronas fendo servir las fibras niervosas d'o caragol com\u00fan",
    "eventYear": "1901",
    "image": "https://calendario-cientifico-escolar.github.io/images/personajes/192.png"
}