{
    "lang": "astu",
    "year": 2021,
    "month": 7,
    "day": 12,
    "title": "12 de xunetu de 1764",
    "body": " Tuvo llugar el primer avistamientu d\u2019una nebulosa. Descubri\u00f3la l\u2019astr\u00f3nomu Charres Messier y p\u00fanxo-y el n\u00famberu 27 del so cat\u00e1logu (M27). Tami\u00e9n se conoz como nebulosa Dumbbell",
    "eventYear": "1764",
    "image": "https://calendario-cientifico-escolar.github.io/images/personajes/193.png"
}