{
    "lang": "cat",
    "year": 2021,
    "month": 7,
    "day": 12,
    "title": "12 de juliol de 1764",
    "body": " Va tenir lloc el primer albirament d'una nebulosa. La va descobrir l'astr\u00f2nom Charles Messier i li va posar el n\u00famero 27 del seu cat\u00e0leg (M27). Tamb\u00e9 es coneix com a nebulosa Dumbbell",
    "eventYear": "1764",
    "image": "https://calendario-cientifico-escolar.github.io/images/personajes/193.png"
}