{
    "lang": "gal",
    "year": 2021,
    "month": 7,
    "day": 12,
    "title": "12 de xullo de 1764",
    "body": " Tivo lugar o primeiro avistamento dunha nebulosa. Descubriuna o astr\u00f3nomo Charles Messier e p\u00faxolle o n\u00famero 27 do seu cat\u00e1logo (M27). Tam\u00e9n se co\u00f1ece como nebulosa Dumbbell",
    "eventYear": "1764",
    "image": "https://calendario-cientifico-escolar.github.io/images/personajes/193.png"
}