{
    "lang": "eus",
    "year": 2021,
    "month": 7,
    "day": 14,
    "title": "1862/7/14",
    "body": " Florence Bascom kristalografian, mineralogian eta petrografian aditua jaio zen. Estatu Batuetako lehen geologoa izan zen",
    "eventYear": "1862",
    "image": "https://calendario-cientifico-escolar.github.io/images/personajes/195.png"
}