{
    "lang": "es",
    "year": 2021,
    "month": 7,
    "day": 19,
    "title": "19 de julio de 1945",
    "body": " Naci\u00f3 la genetista Nancy Wexler. Colabor\u00f3 en el descubrimiento de la localizaci\u00f3n del gen que causa la enfermedad de Huntington",
    "eventYear": "1945",
    "image": "https://calendario-cientifico-escolar.github.io/images/personajes/200.png"
}