{
    "lang": "eus",
    "year": 2021,
    "month": 7,
    "day": 19,
    "title": "1945/7/19",
    "body": " Nancy Wexler genetista jaio zen. Huntingtonen gaixotasuna eragiten duen genearen lokalizazioa aurkitzeko lanetan lagundu zuen",
    "eventYear": "1945",
    "image": "https://calendario-cientifico-escolar.github.io/images/personajes/200.png"
}