{
    "lang": "es",
    "year": 2021,
    "month": 7,
    "day": 1,
    "title": "1 de julio de 1935",
    "body": " Naci\u00f3 la bi\u00f3loga y ocean\u00f3grafa Josefina Castellv\u00ed. Fue la primera espa\u00f1ola en participar en una expedici\u00f3n internacional en la Ant\u00e1rtida. Colabor\u00f3 en la instalaci\u00f3n de la primera base ant\u00e1rtica espa\u00f1ola",
    "eventYear": "1935",
    "image": "https://calendario-cientifico-escolar.github.io/images/personajes/182.png"
}