{
    "lang": "arag",
    "year": 2021,
    "month": 7,
    "day": 22,
    "title": "22 de chuliol de 1871",
    "body": " Se plaza la primer piedra d'o puent ferroviario Tay (Escocia). Va estar lo puent mas largo d'o mundo en a suya epoca",
    "eventYear": "1871",
    "image": "https://calendario-cientifico-escolar.github.io/images/personajes/203.png"
}