{
    "lang": "es",
    "year": 2021,
    "month": 7,
    "day": 23,
    "title": "23 de julio de 2020",
    "body": " Un estudio con participaci\u00f3n del CSIC revel\u00f3 una reducci\u00f3n del 50% del ruido s\u00edsmico generado por la actividad humana. Esta reducci\u00f3n se produjo como consecuencia de las medidas de confinamiento por la pandemia del coronavirus",
    "eventYear": "2020",
    "image": "https://calendario-cientifico-escolar.github.io/images/personajes/204.png"
}