{
    "lang": "arag",
    "year": 2021,
    "month": 7,
    "day": 28,
    "title": "28 de chuliol de 1635",
    "body": " Naixe lo scientifico angl\u00e9s Robert Hooke. Va estar la primer persona en describir la vida microscopica en o suyo libro Micrographia. Este libro contiene per primer vegada la parola celula",
    "eventYear": "1635",
    "image": "https://calendario-cientifico-escolar.github.io/images/personajes/209.png"
}