{
    "lang": "en",
    "year": 2021,
    "month": 7,
    "day": 29,
    "title": "July 29, 1796",
    "body": " Inventor Walter Hunt was born. He is known as the inventor of the safety pin",
    "eventYear": "1796",
    "image": "https://calendario-cientifico-escolar.github.io/images/personajes/210.png"
}