{
    "lang": "arag",
    "year": 2021,
    "month": 7,
    "day": 2,
    "title": "2 de chuliol de 1982",
    "body": " Richard Walters Lawrence p\u00eda 45 globos d'helio a una siella de chard\u00edn y esta puya a mas de 4.500 m. Frustrau per no haber puesto estar piloto d'as Fuerzas Aerias d'EUA, va decidir de volar per la suya cuenta d'esta manera tant especial",
    "eventYear": "1982",
    "image": "https://calendario-cientifico-escolar.github.io/images/personajes/183.png"
}