{
    "lang": "gal",
    "year": 2021,
    "month": 7,
    "day": 2,
    "title": "2 de xullo de 1982",
    "body": " Richard Walters Lawrence atou 45 globos de helio a unha cadeira de xard\u00edn e esta elevouse a m\u00e1is de 4.500 m. Frustrado por non ter podido ser piloto das Forzas A\u00e9reas de EE.UU., decidiu voar pola s\u00faa conta deste xeito tan especial",
    "eventYear": "1982",
    "image": "https://calendario-cientifico-escolar.github.io/images/personajes/183.png"
}