{
    "lang": "cat",
    "year": 2021,
    "month": 7,
    "day": 30,
    "title": "30 de juliol de 1889",
    "body": " Va n\u00e9ixer l'enginyer Vladimir Zworykin. Va inventar el tub de raigs cat\u00f2dics i, per aix\u00f2, se'l coneix com el pare de la televisi\u00f3",
    "eventYear": "1889",
    "image": "https://calendario-cientifico-escolar.github.io/images/personajes/211.png"
}