{
    "lang": "gal",
    "year": 2021,
    "month": 7,
    "day": 30,
    "title": "30 de xullo de 1889",
    "body": " Naceu o enxe\u00f1eiro Vladimir Zworykin. Inventou o tubo de raios cat\u00f3dicos e, por iso, \u00e9 co\u00f1ecido como o pai da televisi\u00f3n",
    "eventYear": "1889",
    "image": "https://calendario-cientifico-escolar.github.io/images/personajes/211.png"
}