{
    "lang": "eus",
    "year": 2021,
    "month": 7,
    "day": 4,
    "title": "2019/7/4",
    "body": " PRISMA aurkeztu zen, Madrilgo Zientzia Naturalen Museo Nazionalean. PRISMA, Zientzia, Teknologia eta Berrikuntzaren Aniztasun Afektibo-sexualerako eta Genero Aniztasunerako Elkartea da. Zientziaren munduan LGTBIQA+ kolektiboaren agerikotasuna areagotzea du helburutzat",
    "eventYear": "2019",
    "image": "https://calendario-cientifico-escolar.github.io/images/personajes/185.png"
}