{
    "lang": "arag",
    "year": 2021,
    "month": 7,
    "day": 5,
    "title": "5 de chuliol de 1904",
    "body": " Naixe lo biologo Ernst Walter Mayr. Fue lider en o desenrollo d'o neodarwinismo, que integra la teor\u00eda d'a evoluci\u00f3n y y los conoiximientos en o campo d'a chenetica",
    "eventYear": "1904",
    "image": "https://calendario-cientifico-escolar.github.io/images/personajes/186.png"
}