{
    "lang": "eus",
    "year": 2021,
    "month": 7,
    "day": 5,
    "title": "1904/7/5",
    "body": " Ernst Walter Mayr biologoa jaio zen. Neodarwinismoaren garapenean aitzindaria izan zen, eboluzioaren teoria eta genetikaren alorreko ezagutzak uztartuz",
    "eventYear": "1904",
    "image": "https://calendario-cientifico-escolar.github.io/images/personajes/186.png"
}