{
    "lang": "gal",
    "year": 2021,
    "month": 7,
    "day": 7,
    "title": "7 de xullo de 1924",
    "body": " Naceu a neurocient\u00edfica e psic\u00f3loga Natalia Petrovna Bekhtereva. Puxo en marcha un m\u00e9todo complexo para estudar os mecanismos cerebrais do pensamento, a memoria, as emoci\u00f3ns e a creatividade",
    "eventYear": "1924",
    "image": "https://calendario-cientifico-escolar.github.io/images/personajes/188.png"
}