{
    "lang": "en",
    "year": 2021,
    "month": 7,
    "day": 8,
    "title": "July 8, 1926",
    "body": " Psychiatrist Elizabeth Kubler-Ross was born. She is recognized as the leading authority on the psychology of death",
    "eventYear": "1926",
    "image": "https://calendario-cientifico-escolar.github.io/images/personajes/189.png"
}