{
    "lang": "cat",
    "year": 2021,
    "month": 7,
    "day": 9,
    "title": "9 de juliol de 2015",
    "body": " Un equip d'investigaci\u00f3 de l'IGME, la Universitat Complutense i la de Barcelona va trobar una mosca de fa 105 milions d'anys en perfecte estat de conservaci\u00f3. La mosca s'havia conservat en ambre a la cova d'El Soplao (Cant\u00e0bria) i encara portava una c\u00e0rrega de pol\u00b7len al seu abdomen",
    "eventYear": "2015",
    "image": "https://calendario-cientifico-escolar.github.io/images/personajes/190.png"
}