{
    "lang": "cat",
    "year": 2021,
    "month": 1,
    "day": 10,
    "title": "10 de gener de 1860",
    "body": " El metro de Londres va quedar inaugurat. Aquest metro \u00e9s el sistema de transport p\u00fablic sota terra m\u00e9s antic del m\u00f3n",
    "eventYear": "1860",
    "image": "https://calendario-cientifico-escolar.github.io/images/personajes/10.png"
}