{
    "lang": "cat",
    "year": 2021,
    "month": 1,
    "day": 11,
    "title": "11 de gener de 1907",
    "body": " Va n\u00e9ixer la immun\u00f2loga Mary Shaw Shorb. Mary va desenvolupar una t\u00e8cnica per analitzar la vitamina B12. Amb aix\u00f2 va contribuir a combatre l'an\u00e8mia perniciosa",
    "eventYear": "1907",
    "image": "https://calendario-cientifico-escolar.github.io/images/personajes/11.png"
}