{
    "lang": "astu",
    "year": 2021,
    "month": 1,
    "day": 12,
    "title": "12 de xineru de 1925",
    "body": " Naz l\u2019albeitre Miguel Cordero del Campillo. Foi una autorid\u00e1 mundial nel campu de la parasitolox\u00eda. Tuvo un papel clave na nacencia de la Universid\u00e1 de Lle\u00f3n",
    "eventYear": "1925",
    "image": "https://calendario-cientifico-escolar.github.io/images/personajes/12.png"
}