{
    "lang": "arag",
    "year": 2021,
    "month": 1,
    "day": 14,
    "title": "14 de chinero de 1973",
    "body": " Elvis Presley realiza lo primer concierto transmitiu per satelite. Se va fer dende lo Centro Internacional de Honolulu y se va poder veyer en 40 pa\u00edses",
    "eventYear": "1973",
    "image": "https://calendario-cientifico-escolar.github.io/images/personajes/14.png"
}