{
    "lang": "cat",
    "year": 2021,
    "month": 1,
    "day": 14,
    "title": "14 de gener de 1973",
    "body": " Elvis Presley va realitzar el primer concert transm\u00e8s per via sat\u00e8l\u00b7lit. Es va fer des del Centre Internacional de Honolulu i es va poder veure a 40 pa\u00efsos",
    "eventYear": "1973",
    "image": "https://calendario-cientifico-escolar.github.io/images/personajes/14.png"
}