{
    "lang": "cat",
    "year": 2021,
    "month": 1,
    "day": 15,
    "title": "15 de gener de 1826",
    "body": " Va n\u00e9ixer l'assistent cient\u00edfica Marie Pasteur. Va treballar com a assistent i col\u00b7laboradora de Louis Pasteur, amb qui estava casada. El seu suport va ser essencial en els descobriments de l'investigador",
    "eventYear": "1826",
    "image": "https://calendario-cientifico-escolar.github.io/images/personajes/15.png"
}