{
    "lang": "eus",
    "year": 2021,
    "month": 1,
    "day": 15,
    "title": "1826/1/15",
    "body": " Marie Pasteur laguntzaile zientifikoa jaio zen. Louis Pasteurren emaztea zen, eta haren laguntzaile eta kolaboratzaile gisa jardun zuen. Haren laguntza funtsezkoa izan zen ikertzailearen aurkikuntzetan",
    "eventYear": "1826",
    "image": "https://calendario-cientifico-escolar.github.io/images/personajes/15.png"
}