{
    "lang": "cat",
    "year": 2021,
    "month": 1,
    "day": 17,
    "title": "17 de gener de 1897",
    "body": " Va n\u00e9ixer la f\u00edsica Caroline Emilie Bleeker. Els seus estudis m\u00e9s coneguts inclouen el disseny i la fabricaci\u00f3 d'instruments \u00f2ptics",
    "eventYear": "1897",
    "image": "https://calendario-cientifico-escolar.github.io/images/personajes/17.png"
}