{
    "lang": "eus",
    "year": 2021,
    "month": 1,
    "day": 1,
    "title": "1914/1/1",
    "body": " Manuela Gar\u00edn Pinillos jaio zen, Mexikoko matematikaren aitzindarietako bat. Bere eredu matematikoak lagungarri izan ziren Lurraren eremu magnetikoa azaltzeko",
    "eventYear": "1914",
    "image": "https://calendario-cientifico-escolar.github.io/images/personajes/1.png"
}