{
    "lang": "cat",
    "year": 2021,
    "month": 1,
    "day": 20,
    "title": "20 de gener de 1944",
    "body": " Es va fundar l'Estaci\u00f3 de Biologia Experimental de Cogullada (coneguda actualment com a Estaci\u00f3 experimental Aula Dei). L'objectiu d'aquest institut del CSIC \u00e9s millorar la competitivitat i sostenibilitat del sector agr\u00edcola",
    "eventYear": "1944",
    "image": "https://calendario-cientifico-escolar.github.io/images/personajes/20.png"
}