{
    "lang": "eus",
    "year": 2021,
    "month": 1,
    "day": 21,
    "title": "1865/1/21",
    "body": " Sophia Jex-Blake jaio zen, \"Edinburgoko zazpietako\" bat, hain zuzen. Emakumeak unibertsitate-hezkuntzan sar zitezela ziurtatzeko kanpaina zuzendu zuen, eta ondoren Medikuntza ikasi zuen",
    "eventYear": "1865",
    "image": "https://calendario-cientifico-escolar.github.io/images/personajes/21.png"
}