{
    "lang": "gal",
    "year": 2021,
    "month": 1,
    "day": 21,
    "title": "21 de xaneiro de 1865",
    "body": " Naceu Sophia Jex-Blake, quen \u00e9 co\u00f1ecida como unha das sete de Edimburgo. Dirixiu a campa\u00f1a para asegurar o acceso das mulleres \u00e1 educaci\u00f3n universitaria e despois estudou Medicina",
    "eventYear": "1865",
    "image": "https://calendario-cientifico-escolar.github.io/images/personajes/21.png"
}