{
    "lang": "es",
    "year": 2021,
    "month": 1,
    "day": 24,
    "title": "24 de enero de 1809",
    "body": " Naci\u00f3 el naturalista Mariano de la Paz Graells. Describi\u00f3 nuevas especies de insectos, entre las que destaca la magn\u00edfica mariposa isabelina (Graellsia isabelae)",
    "eventYear": "1809",
    "image": "https://calendario-cientifico-escolar.github.io/images/personajes/24.png"
}