{
    "lang": "cat",
    "year": 2021,
    "month": 1,
    "day": 26,
    "title": "26 de gener de 1941",
    "body": " Va n\u00e9ixer la bioqu\u00edmica Joan Elaine Argetsinger Steitz. Va guanyar fama internacional pels seus descobriments sobre l'ARN",
    "eventYear": "1941",
    "image": "https://calendario-cientifico-escolar.github.io/images/personajes/26.png"
}