{
    "lang": "en",
    "year": 2021,
    "month": 1,
    "day": 27,
    "title": "January 27, 1876",
    "body": " \u200b\u200bElectrical engineer Elisha Gray filed a patent application for the musical telegraph. It was one of the first electric musical instruments",
    "eventYear": "1876",
    "image": "https://calendario-cientifico-escolar.github.io/images/personajes/27.png"
}