{
    "lang": "astu",
    "year": 2021,
    "month": 1,
    "day": 28,
    "title": "28 de xineru de 2013",
    "body": " La supercomputadora IBM Sequoia bati\u00f3 un r\u00e9cor de c\u00e1lculu al modelar un motor pa un jet esperimental. Pa ello cunt\u00f3 col encontu de m\u00e1s d\u2019un mill\u00f3n de n\u00facleos de procesamientu",
    "eventYear": "2013",
    "image": "https://calendario-cientifico-escolar.github.io/images/personajes/28.png"
}