{
    "lang": "astu",
    "year": 2021,
    "month": 1,
    "day": 2,
    "title": "2 de xineru de 1839",
    "body": " Louis Daguerre intent\u00f3 facer la primer semeya del espaciu. Pa facela mand\u00f3se d\u2019un daguerrotipu y un telescopiu, pero nun tuvo \u00e9xitu (la semeya sali\u00f3 borrosa)",
    "eventYear": "1839",
    "image": "https://calendario-cientifico-escolar.github.io/images/personajes/2.png"
}