{
    "lang": "gal",
    "year": 2021,
    "month": 1,
    "day": 31,
    "title": "31 de xaneiro de 1925",
    "body": " Naceu Manuel Jal\u00f3n. Realizou numerosas patentes, inclu\u00eddos numerosos instrumentos tan co\u00f1ecidos como a fregona ou a xiringa hipod\u00e9rmica dun s\u00f3 uso",
    "eventYear": "1925",
    "image": "https://calendario-cientifico-escolar.github.io/images/personajes/31.png"
}