{
    "lang": "es",
    "year": 2021,
    "month": 1,
    "day": 3,
    "title": "3 de enero de 1871",
    "body": " Henry Bradley patent\u00f3 la primera margarina. Su receta estaba hecha principalmente con aceite de algod\u00f3n y grasa animal",
    "eventYear": "1871",
    "image": "https://calendario-cientifico-escolar.github.io/images/personajes/3.png"
}