{
    "lang": "astu",
    "year": 2021,
    "month": 1,
    "day": 20,
    "title": "20 de xineru de 1944",
    "body": " Fund\u00f3se la Estaci\u00f3n de Biolox\u00eda Esperimental de Cogullada (conocida g\u00fcei como Estaci\u00f3n Esperimental d\u2019Aula Dei). L\u2019oxetivu d\u2019esti institutu del CSIC ye ameyorar la competitivid\u00e1 y sostenibilid\u00e1 del sector agr\u00edcola",
    "eventYear": "1944",
    "image": "https://calendario-cientifico-escolar.github.io/images/personajes/20.png"
}