{
    "lang": "en",
    "year": 2021,
    "month": 7,
    "day": 13,
    "title": "July 13, 1923",
    "body": " The first existence of fossilized dinosaur eggs was acknowledged. This discovery took place in the Gobi Desert. They were initially believed to belong to Protoceratops, but in 1995 they were determined to belong to Oviraptor",
    "eventYear": "1923",
    "image": "https://calendario-cientifico-escolar.github.io/images/personajes/194.png"
}