{
    "lang": "en",
    "year": 2021,
    "month": 7,
    "day": 15,
    "title": "July 15, 1799",
    "body": " During Napoleon's campaign in Egypt, the Rosetta Stone was discovered. This stone is engraved in Greek, hieroglyphic, and demotic, and is the key that allows deciphering Egyptian hieroglyphics",
    "eventYear": "1799",
    "image": "https://calendario-cientifico-escolar.github.io/images/personajes/196.png"
}