{
    "lang": "en",
    "year": 2021,
    "month": 7,
    "day": 21,
    "title": "July 21, 2013",
    "body": " A flexible and sensitive electronic skin mimicking real human skin was developed. This skin can detect and respond to different levels of pressure",
    "eventYear": "2013",
    "image": "https://calendario-cientifico-escolar.github.io/images/personajes/202.png"
}