{
    "lang": "en",
    "year": 2021,
    "month": 4,
    "day": 11,
    "title": "April 11, 2013",
    "body": " It is discovered that listening to sounds during sleep, at controlled intervals of time, can improve memory",
    "eventYear": "2013",
    "image": "https://calendario-cientifico-escolar.github.io/images/personajes/101.png"
}