{
    "lang": "astu",
    "year": 2021,
    "month": 4,
    "day": 15,
    "title": "15 d\u2019abril de 1452",
    "body": " Naci\u00f3 Leonardo da Vinci, pintor, escultor, inventor, inxenieru y arquiteutu del Renacimientu",
    "eventYear": "1452",
    "image": "https://calendario-cientifico-escolar.github.io/images/personajes/105.png"
}