{
    "lang": "arag",
    "year": 2021,
    "month": 4,
    "day": 16,
    "title": "16 d'abril de 1921",
    "body": " Isaac Carasso solicita la patent pa la elaboraci\u00f3n d'una leit callada clamada comunment \u00abyoghourt\u00bb\u0094. Va decir a la suya empresa \u00abDanone\u00bb, per lo diminutivo d'o nombre d'o suyo fillo Daniel (\u00abDan\u00f3n\u00bb)",
    "eventYear": "1921",
    "image": "https://calendario-cientifico-escolar.github.io/images/personajes/106.png"
}