{
    "lang": "en",
    "year": 2021,
    "month": 4,
    "day": 16,
    "title": "April 16, 1921",
    "body": " Isaac Carasso filed a patent application for the production of curdled milk commonly called yoghourt. He named his company Danone, after his son Daniel diminutive name (Dan\u00f3n)",
    "eventYear": "1921",
    "image": "https://calendario-cientifico-escolar.github.io/images/personajes/106.png"
}