{
    "lang": "eus",
    "year": 2021,
    "month": 4,
    "day": 16,
    "title": "1921/4/16",
    "body": " Isaac Carassok, \"yoghourt\u201d esaten diogun esne mamitua egiteko patentea eskatu zuen. Enpresari \"Danone\" izena jarri zion bere seme Danielen txikigarria erabiliz: \"Dan\u00f3n\"",
    "eventYear": "1921",
    "image": "https://calendario-cientifico-escolar.github.io/images/personajes/106.png"
}