{
    "lang": "astu",
    "year": 2021,
    "month": 4,
    "day": 17,
    "title": "17 d\u2019abril de 1887",
    "body": " Naci\u00f3 Clodomiro Picado. Foi pioneru na investigaci\u00f3n sobro culiebres y los sos venenos. Tami\u00e9n foi \u00fan de los precursores del descubrimientu de la penicilina",
    "eventYear": "1887",
    "image": "https://calendario-cientifico-escolar.github.io/images/personajes/107.png"
}