{
    "lang": "es",
    "year": 2021,
    "month": 4,
    "day": 18,
    "title": "18 de abril de 1917",
    "body": " Naci\u00f3 la psic\u00f3loga Mamie Phipps Clark. Trabaj\u00f3 en la comprensi\u00f3n del desarrollo de la conciencia social en ni\u00f1os preescolares",
    "eventYear": "1917",
    "image": "https://calendario-cientifico-escolar.github.io/images/personajes/108.png"
}