{
    "lang": "gal",
    "year": 2021,
    "month": 4,
    "day": 1,
    "title": "1 de abril de 1940",
    "body": " Naceu a bi\u00f3loga e ecoloxista Wangari Muta Maathai. Recibiu o Premio Nobel da Paz 2004 polas s\u00faas achegas ao desenvolvemento sostible e \u00e1 democracia. Foi a primeira africana en obter este galard\u00f3n",
    "eventYear": "1940",
    "image": "https://calendario-cientifico-escolar.github.io/images/personajes/91.png"
}