{
    "lang": "gal",
    "year": 2021,
    "month": 4,
    "day": 23,
    "title": "23 de abril de 1933",
    "body": " Naceu a inform\u00e1tica Annie J. Easley. Traballou no Lewis Research Center da NASA. Formou parte do equipo que desenvolveu o s\u00f3ftware do foguete Centauro",
    "eventYear": "1933",
    "image": "https://calendario-cientifico-escolar.github.io/images/personajes/113.png"
}