{
    "lang": "en",
    "year": 2021,
    "month": 4,
    "day": 30,
    "title": "April 30, 2010",
    "body": " IGME researchers located an unknown wetland on maps from the 18th and 19th centuries. This wetland had disappeared from the historical record",
    "eventYear": "2010",
    "image": "https://calendario-cientifico-escolar.github.io/images/personajes/120.png"
}