{
    "lang": "en",
    "year": 2021,
    "month": 4,
    "day": 3,
    "title": "April 3, 1934",
    "body": " Primatologist Jane Goodall was born. She is worldwide recognized for her studies on social and family interactions of chimpanzees",
    "eventYear": "1934",
    "image": "https://calendario-cientifico-escolar.github.io/images/personajes/93.png"
}