{
    "lang": "es",
    "year": 2021,
    "month": 4,
    "day": 3,
    "title": "3 de abril de 1934",
    "body": " Naci\u00f3 la primat\u00f3loga Jane Goodall. Es reconocida mundialmente por sus estudios sobre las interacciones sociales y familiares de los chimpanc\u00e9s",
    "eventYear": "1934",
    "image": "https://calendario-cientifico-escolar.github.io/images/personajes/93.png"
}