{
    "lang": "es",
    "year": 2021,
    "month": 4,
    "day": 4,
    "title": "4 de abril de 1868",
    "body": " Naci\u00f3 la matem\u00e1tica Philippa Garrett Fawcett. Gan\u00f3 una beca en la Universidad de Cambridge gracias a su extraordinario \u00e9xito en el Mathematical Tripos (1890). Investig\u00f3 sobre din\u00e1mica de fluidos",
    "eventYear": "1868",
    "image": "https://calendario-cientifico-escolar.github.io/images/personajes/94.png"
}