{
    "lang": "arag",
    "year": 2021,
    "month": 4,
    "day": 6,
    "title": "6 d'abril de 1846",
    "body": " Naixe Antonio Machado y \u00c1lvarez u \u00abDem\u00f3filo\u00bb,  pai d'os poetas Antonio y Manuel Machado. Va estar un d'os primers folcloristas en estudiar scientificament lo flamenco",
    "eventYear": "1846",
    "image": "https://calendario-cientifico-escolar.github.io/images/personajes/96.png"
}