{
    "lang": "cat",
    "year": 2021,
    "month": 4,
    "day": 7,
    "title": "7 de abril de 1995",
    "body": " Inauguraci\u00f3 de la Domus de A Coru\u00f1a, el primer museu interactiu de car\u00e0cter cient\u00edfic que tracta l'\u00e9sser hum\u00e0 d'una manera global i monogr\u00e0fica",
    "eventYear": "1995",
    "image": "https://calendario-cientifico-escolar.github.io/images/personajes/97.png"
}