{
    "lang": "es",
    "year": 2021,
    "month": 4,
    "day": 9,
    "title": "9 de abril de 1860",
    "body": " El inventor \u00c9douard-Le\u00f3n Scott de Martinville realiz\u00f3 la primera grabaci\u00f3n conocida de la voz humana. Era una voz soprano que interpretaba la canci\u00f3n \"Au clair de la Lune\"",
    "eventYear": "1860",
    "image": "https://calendario-cientifico-escolar.github.io/images/personajes/99.png"
}