{
    "lang": "en",
    "year": 2021,
    "month": 5,
    "day": 12,
    "title": "May 12, 1910",
    "body": " Nobel Prize winner Dorothy Crowfoot Hodgkin was born. She determined the 3D structure of molecules such as penicillin or insulin. The 3D structure is key to understanding the functions of a protein",
    "eventYear": "1910",
    "image": "https://calendario-cientifico-escolar.github.io/images/personajes/132.png"
}