{
    "lang": "en",
    "year": 2021,
    "month": 5,
    "day": 20,
    "title": "May 20, 1900",
    "body": " Chemist and physicist Erika Cremer was born. She was a pioneer in gas chromatography. However, her 1944 article about her method was never published, because a bombing destroyed the galley proofs in the Naturwissenschaften magazine",
    "eventYear": "1900",
    "image": "https://calendario-cientifico-escolar.github.io/images/personajes/140.png"
}