{
    "lang": "eus",
    "year": 2021,
    "month": 10,
    "day": 24,
    "title": "1924/10/24",
    "body": " Evangelina Villegas biokimikaria eta zerealetan aditua jaio zen. Surinder K. Vasal lankidearekin batera, kalitate handiko arto-proteina garatu zuen, eta horregatik, Elikagaien Mundu Saria lortu zuten",
    "eventYear": "1924",
    "image": "https://calendario-cientifico-escolar.github.io/images/personajes/297.png"
}