{
    "lang": "es",
    "year": 2021,
    "month": 1,
    "day": 5,
    "title": "5 de enero de 1895",
    "body": " Naci\u00f3 la microbi\u00f3loga Rebecca Craighill Lancefield. Invent\u00f3 un nuevo m\u00e9todo para clasificar las bacterias del grupo Streptococcus",
    "eventYear": "1895",
    "image": "https://calendario-cientifico-escolar.github.io/images/personajes/5.png"
}