{
    "lang": "es",
    "year": 2021,
    "month": 5,
    "day": 25,
    "title": "25 de mayo de 1880",
    "body": " Naci\u00f3 el neur\u00f3logo Jean Alexandre Barr\u00e9. Identific\u00f3 el s\u00edndrome de Guillain-Barr\u00e9, una enfermedad neurol\u00f3gica rara",
    "eventYear": "1880",
    "image": "https://calendario-cientifico-escolar.github.io/images/personajes/145.png"
}