{
    "lang": "eus",
    "year": 2021,
    "month": 9,
    "day": 11,
    "title": "1942/9/11",
    "body": " Deirdre McCloskey ekonomialaria eta ekonomiaren historialaria jaio zen. Besteak beste, mundu modernoko jatorrien, ekonomian esangura estatistikoa gaizki erabiltzearen eta kapitalismoaren gaineko ikerketak egin zituen",
    "eventYear": "1942",
    "image": "https://calendario-cientifico-escolar.github.io/images/personajes/254.png"
}