{
    "lang": "eus",
    "year": 2021,
    "month": 9,
    "day": 27,
    "title": "1818/9/27",
    "body": " Cosme Garc\u00eda asmatzailea jaio zen. Urpekari-prototipo bat patentatu zuen lehen espainiarra izan zen. Behin eraiki ondoren, urpekari hori arrakastaz probatu zuten Alacanteko portuan, 1860an",
    "eventYear": "1818",
    "image": "https://calendario-cientifico-escolar.github.io/images/personajes/270.png"
}