{
    "lang": "eus",
    "year": 2021,
    "month": 9,
    "day": 29,
    "title": "1938/9/29",
    "body": " Enrico Fermi fisikaria jaio zen. 1938an, Fisikaren Nobel Saria jaso zuen, erradioaktibitate artifizialari buruz egin zituen lanengatik. Lau urte geroago, giza jatorriko lehen erreakzio nuklearra egin zuen",
    "eventYear": "1938",
    "image": "https://calendario-cientifico-escolar.github.io/images/personajes/272.png"
}