{
    "lang": "gal",
    "year": 2021,
    "month": 10,
    "day": 16,
    "title": "16 de outubro de 1969",
    "body": " Do\u00f1ana converteuse en Parque Nacional. A s\u00faa marisma \u00e9 lugar de paso, cr\u00eda e invernada para miles de aves europeas e africanas",
    "eventYear": "1969",
    "image": "https://calendario-cientifico-escolar.github.io/images/personajes/289.png"
}