{
    "lang": "eus",
    "year": 2021,
    "month": 10,
    "day": 17,
    "title": "1919/10/17",
    "body": " Espainiako lehen metro-linea abian jarri zen. Puerta del Soletik Cuatro Caminosera zihoan, Madrilen",
    "eventYear": "1919",
    "image": "https://calendario-cientifico-escolar.github.io/images/personajes/290.png"
}