{
    "lang": "eus",
    "year": 2021,
    "month": 10,
    "day": 18,
    "title": "1799/10/18",
    "body": " Christian Schoenbein kimikaria jaio zen. Nitrozelulosa aurkitu zuen, eta ozonoari izena eman zion",
    "eventYear": "1799",
    "image": "https://calendario-cientifico-escolar.github.io/images/personajes/291.png"
}