{
    "lang": "gal",
    "year": 2021,
    "month": 10,
    "day": 21,
    "title": "21 de outubro de 1879",
    "body": " Thomas Edison presentou a l\u00e1mpada el\u00e9ctrica",
    "eventYear": "1879",
    "image": "https://calendario-cientifico-escolar.github.io/images/personajes/294.png"
}