{
    "lang": "en",
    "year": 2021,
    "month": 10,
    "day": 27,
    "title": "October 27, 1904",
    "body": " Philip Downing invented the post office box, still in use today",
    "eventYear": "1904",
    "image": "https://calendario-cientifico-escolar.github.io/images/personajes/300.png"
}