{
    "lang": "arag",
    "year": 2021,
    "month": 10,
    "day": 29,
    "title": "29 d'octubre de 1969",
    "body": " Dos ordinadors de diferents universidatz californianas se connectan y ninvian un mensache a travi\u00e9s d'un nuevo protocolo, ARPANET. Este ret ye lo precursor d'internet",
    "eventYear": "1969",
    "image": "https://calendario-cientifico-escolar.github.io/images/personajes/302.png"
}