{
    "lang": "astu",
    "year": 2021,
    "month": 10,
    "day": 29,
    "title": "29 d\u2019ochobre de 1969",
    "body": " Dos ordenadores de distintes universidaes californianes consiguieron coneutase y unviar un mensaxe al travi\u00e9s d\u2019un nuevu protocolu, ARPANET. Esta rede ye la precursora d\u2019internet",
    "eventYear": "1969",
    "image": "https://calendario-cientifico-escolar.github.io/images/personajes/302.png"
}