{
    "lang": "gal",
    "year": 2021,
    "month": 10,
    "day": 2,
    "title": "2 de outubro de 1846",
    "body": " Comezou a funcionar a li\u00f1a de telegraf\u00eda \u00f3ptica de Castela, que \u00eda desde Madrid ata Ir\u00fan. Foi ideada por Jos\u00e9 Mar\u00eda Math\u00e9",
    "eventYear": "1846",
    "image": "https://calendario-cientifico-escolar.github.io/images/personajes/275.png"
}