{
    "lang": "es",
    "year": 2021,
    "month": 10,
    "day": 30,
    "title": "30 de octubre de 1900",
    "body": " Naci\u00f3 el cient\u00edfico Ragnar Granit. Gan\u00f3 el Premio Nobel por sus descubrimientos de los procesos fisiol\u00f3gicos y qu\u00edmicos en el ojo",
    "eventYear": "1900",
    "image": "https://calendario-cientifico-escolar.github.io/images/personajes/303.png"
}