{
    "lang": "astu",
    "year": 2021,
    "month": 10,
    "day": 31,
    "title": "31 d\u2019ochobre de 1798",
    "body": " John Dalton descubri\u00f3 la discromatopsia. Esta enfermed\u00e1 de la vista conozse popularmente como daltonismu",
    "eventYear": "1798",
    "image": "https://calendario-cientifico-escolar.github.io/images/personajes/304.png"
}