{
    "lang": "arag",
    "year": 2021,
    "month": 10,
    "day": 31,
    "title": "31 d'octubre de 1798",
    "body": " John Dalton descubre la discromatopsia. Esta malot\u00eda d'a vista se conoixe vulgarment como daltonismo",
    "eventYear": "1798",
    "image": "https://calendario-cientifico-escolar.github.io/images/personajes/304.png"
}