{
    "lang": "arag",
    "year": 2021,
    "month": 10,
    "day": 8,
    "title": "8 d'octubre de 1958",
    "body": "  Lo cirurchano sueco Ake Senning implanta lo primer marcapasos",
    "eventYear": "1958",
    "image": "https://calendario-cientifico-escolar.github.io/images/personajes/281.png"
}