{
    "lang": "gal",
    "year": 2021,
    "month": 10,
    "day": 9,
    "title": "9 de outubro de 1902",
    "body": " A comunidade cient\u00edfica internacional reco\u00f1eceu a autenticidade da arte paleol\u00edtica da cova de Altamira. Estas pinturas foran descubertas pola nena Mar\u00eda Sanz de Sautuola cando visitaba a cova en compa\u00f1a de seu pai Marcelino",
    "eventYear": "1902",
    "image": "https://calendario-cientifico-escolar.github.io/images/personajes/282.png"
}