{
    "lang": "astu",
    "year": 2021,
    "month": 3,
    "day": 11,
    "title": "11 de marzu de 1926",
    "body": " Naci\u00f3\u2019l m\u00e9dicu ya investigador Thomas Earl Starzl. En 1967, llev\u00f3 alantre\u2019l primer tresplante de f\u00e9gadu exitosu (tres dellos intentos fall\u00edos)",
    "eventYear": "1926",
    "image": "https://calendario-cientifico-escolar.github.io/images/personajes/70.png"
}