{
    "lang": "eus",
    "year": 2021,
    "month": 3,
    "day": 11,
    "title": "1926/3/11",
    "body": " Thomas Earl Starzl mediku eta ikertzailea jaio zen. 1967an, lehen gibel-transplante arrakastatsua burutu zuen, zenbait aldiz alferrik saiatu ondoren",
    "eventYear": "1926",
    "image": "https://calendario-cientifico-escolar.github.io/images/personajes/70.png"
}