{
    "lang": "en",
    "year": 2021,
    "month": 3,
    "day": 15,
    "title": "March 15, 1985",
    "body": " The first \"dot com\" domain was registered on the internet: Symbolics.com",
    "eventYear": "1985",
    "image": "https://calendario-cientifico-escolar.github.io/images/personajes/74.png"
}