{
    "lang": "gal",
    "year": 2021,
    "month": 3,
    "day": 17,
    "title": "17 de marzo de 1963",
    "body": " Mar\u00eda Elisa \u00c1lvarez Obaya realizou as an\u00e1lises que destaparon o caso do met\u00edlico. Desde a s\u00faa modesta farmacia de Lanzarote, Mar\u00eda Elisa demostrou que unha serie de estra\u00f1as mortes se deb\u00edan ao consumo de licores adulterados con metanol",
    "eventYear": "1963",
    "image": "https://calendario-cientifico-escolar.github.io/images/personajes/76.png"
}