{
    "lang": "eus",
    "year": 2021,
    "month": 3,
    "day": 20,
    "title": "2021/3/20",
    "body": " Txolarrearen Mundu Eguna. Ekimen horren bitartez, txolarreen egoeraz ohartarazi nahi da. Txolarreen populazioa gainbehera nabarian baitago, hirietan bereziki",
    "eventYear": "2021",
    "image": "https://calendario-cientifico-escolar.github.io/images/personajes/79.png"
}