{
    "lang": "en",
    "year": 2021,
    "month": 3,
    "day": 22,
    "title": "March 22, 1920",
    "body": " Geochemist Katsuko Saruhashi was born. She made the first measurements of carbon dioxide (CO2) levels in seawater. She also showed evidence of the dangers of radioactive fallout in the sea and in the atmosphere",
    "eventYear": "1920",
    "image": "https://calendario-cientifico-escolar.github.io/images/personajes/81.png"
}