{
    "lang": "eus",
    "year": 2021,
    "month": 3,
    "day": 24,
    "title": "1882/3/24",
    "body": " Robert Kochek, tuberkulosia dakarren bakterioaren aurkikuntza iragarri zuen. Mycobacterium tuberculosis zen (Kochen baziloa)",
    "eventYear": "1882",
    "image": "https://calendario-cientifico-escolar.github.io/images/personajes/83.png"
}