{
    "lang": "astu",
    "year": 2021,
    "month": 3,
    "day": 27,
    "title": "27 de marzu de 1827",
    "body": " Charles Darwin, con 18 a\u00f1os, present\u00f3\u2019l so primer descubrimientu cient\u00edficu. Trataba sobre la biolox\u00eda de peque\u00f1os animales marinos",
    "eventYear": "1827",
    "image": "https://calendario-cientifico-escolar.github.io/images/personajes/86.png"
}