{
    "lang": "en",
    "year": 2021,
    "month": 3,
    "day": 28,
    "title": "March 28, 2013",
    "body": " Stanford University published the development of a biological transistor made from DNA and RNA molecules",
    "eventYear": "2013",
    "image": "https://calendario-cientifico-escolar.github.io/images/personajes/87.png"
}