{
    "lang": "eus",
    "year": 2021,
    "month": 3,
    "day": 3,
    "title": "1886/3/3",
    "body": " Helen Parkhurst hezitzaile eta pedagogoa jaio zen. Dalton Plana sortu zuen. Plan horren arabera, irakasgairik ez dago, eta ikerketa-gidak erabiltzen dira testu-liburuen ordez. Ikasgela laborategi bihurturik, ikasleek ikaskuntza osatzen dute, irakasleekin konpromiso bat hartuz \u00abkontratu\u00bb baten bitartez",
    "eventYear": "1886",
    "image": "https://calendario-cientifico-escolar.github.io/images/personajes/62.png"
}