{
    "lang": "gal",
    "year": 2021,
    "month": 3,
    "day": 5,
    "title": "5 de marzo de 2013",
    "body": " O Proxecto Human Connectome publicou imaxes moi detalladas de cerebros humanos. Estas imaxes permitiron estudar a complexidade das estruturas cerebrais e identificar causas dos trastornos neuronais",
    "eventYear": "2013",
    "image": "https://calendario-cientifico-escolar.github.io/images/personajes/64.png"
}