{
    "lang": "arag",
    "year": 2021,
    "month": 3,
    "day": 7,
    "title": "7 de marzo de 2009",
    "body": " Se lanza l'observatorio espacial Kepler. La suya misi\u00f3n yera descubrir planetas semellants a la Tierra alredor d'atras estrelas",
    "eventYear": "2009",
    "image": "https://calendario-cientifico-escolar.github.io/images/personajes/66.png"
}