{
    "lang": "en",
    "year": 2021,
    "month": 3,
    "day": 8,
    "title": "March 8, 1839",
    "body": " Josephine Cochrane was born. She invented the first successful dishwashing machine",
    "eventYear": "1839",
    "image": "https://calendario-cientifico-escolar.github.io/images/personajes/67.png"
}