{
    "lang": "cat",
    "year": 2021,
    "month": 3,
    "day": 9,
    "title": "9 de mar\u00e7 de 1961",
    "body": " L'Sputnik 9 va portar a la gossa Chernushka a l'espai. A bord hi anaven tamb\u00e9 un conill d'\u00cdndies, un ratol\u00ed i un maniqu\u00ed de proves anomenat Ivan Ivanovich. El maniqu\u00ed va sortir disparat durant la reentrada i va aterrar amb un paracaigudes. La resta van arribar il\u00b7lesos dins de la c\u00e0psula",
    "eventYear": "1961",
    "image": "https://calendario-cientifico-escolar.github.io/images/personajes/68.png"
}