{
    "lang": "gal",
    "year": 2021,
    "month": 12,
    "day": 16,
    "title": "16 de decembro de 1954",
    "body": " Tracy Hall obtivo os primeiros diamantes sint\u00e9ticos nos laboratorios de General Electrics",
    "eventYear": "1954",
    "image": "https://calendario-cientifico-escolar.github.io/images/personajes/350.png"
}