{
    "lang": "gal",
    "year": 2021,
    "month": 12,
    "day": 18,
    "title": "18 de decembro de 2019",
    "body": " Describiuse unha nova especie de parasito en marsupiais. O seu nome \u00e9 Theileria lupei en reco\u00f1ecemento \u00e1 veterinaria Guadalupe Mir\u00f3, pola s\u00faa contribuci\u00f3n ao campo da parasitolox\u00eda",
    "eventYear": "2019",
    "image": "https://calendario-cientifico-escolar.github.io/images/personajes/352.png"
}