{
    "lang": "eus",
    "year": 2021,
    "month": 6,
    "day": 13,
    "title": "1868/6/13",
    "body": " Wallace Clement Sabine fisikaria jaio zen. Akustika arkitektonikoaren fundatzailea izan zen, baita Boston's Symphony Hall-eko kontsultore akustikoa ere. Kontzertu-areto hori munduko onenetako bat da, akustika bikaina duelako",
    "eventYear": "1868",
    "image": "https://calendario-cientifico-escolar.github.io/images/personajes/164.png"
}