{
    "lang": "cat",
    "year": 2021,
    "month": 6,
    "day": 16,
    "title": "16 de juny de 1963",
    "body": " La cosmonauta Valentina Tereshkova va ser la primera dona que va viatjar a l'espai",
    "eventYear": "1963",
    "image": "https://calendario-cientifico-escolar.github.io/images/personajes/167.png"
}