{
    "lang": "cat",
    "year": 2021,
    "month": 6,
    "day": 17,
    "title": "17 de juny de 2017",
    "body": " L'astronauta Sunita Williams es va convertir en la dona que m\u00e9s temps seguit havia estat a l'espai (a l'Estaci\u00f3 Espacial Internacional), ja que va completar 188 dies i 4 hores fora de la Terra",
    "eventYear": "2017",
    "image": "https://calendario-cientifico-escolar.github.io/images/personajes/168.png"
}