{
    "lang": "en",
    "year": 2021,
    "month": 6,
    "day": 17,
    "title": "June 17, 2017",
    "body": " Astronaut Sunita Williams became the woman who had been the longest in space (on the International Space Station), completing 188 days and 4 hours away from Earth",
    "eventYear": "2017",
    "image": "https://calendario-cientifico-escolar.github.io/images/personajes/168.png"
}