{
    "lang": "eus",
    "year": 2021,
    "month": 6,
    "day": 17,
    "title": "2017/6/17",
    "body": " Sunita Williams astronauta, espazioan jarraian luzaroen egondako emakumea bihurtu zen, Nazioarteko Estazio Espazialean 188 egun eta 4 ordu eman baitzituen Lurretik kanpo",
    "eventYear": "2017",
    "image": "https://calendario-cientifico-escolar.github.io/images/personajes/168.png"
}