{
    "lang": "astu",
    "year": 2021,
    "month": 6,
    "day": 19,
    "title": "19 de xunu de 1903",
    "body": " Naci\u00f3 la bioqu\u00edmica Robeca Gerschman. Postul\u00f3 la teor\u00eda Gerschman sobre la toxicid\u00e1 del os\u00edxenu per aciu de radicales llibres y revolucion\u00f3 l\u2019ambiente cient\u00edficu de la d\u00f3mina",
    "eventYear": "1903",
    "image": "https://calendario-cientifico-escolar.github.io/images/personajes/170.png"
}