{
    "lang": "astu",
    "year": 2021,
    "month": 6,
    "day": 20,
    "title": "20 de xunu de 2019",
    "body": " La investigadora Margarita Salas recibi\u00f3\u2019l \u00abPremiu al Inventor Europ\u00e9u 2019\u00bb. Ente les sos mayores contribuciones destaca la patente de la DNA polimerasa viral, la m\u00e1s granible del CSIC",
    "eventYear": "2019",
    "image": "https://calendario-cientifico-escolar.github.io/images/personajes/171.png"
}