{
    "lang": "eus",
    "year": 2021,
    "month": 6,
    "day": 20,
    "title": "2019/6/20",
    "body": " Margarita Salas ikertzaileak \"2019ko Europako Asmatzailearen Saria\" jaso zuen. DNA polimerasa biralaren patentea izan da bere ekarpen nagusietako bat, CSICen emankorrena",
    "eventYear": "2019",
    "image": "https://calendario-cientifico-escolar.github.io/images/personajes/171.png"
}