{
    "lang": "eus",
    "year": 2021,
    "month": 6,
    "day": 24,
    "title": "1400/6/24",
    "body": " Johannes Gutenberg jaio zen. Tipo mugikorren bidezko inprimategi modernoa asmatu zuen",
    "eventYear": "1400",
    "image": "https://calendario-cientifico-escolar.github.io/images/personajes/175.png"
}