{
    "lang": "arag",
    "year": 2021,
    "month": 6,
    "day": 26,
    "title": "26 de chunyo de 1974",
    "body": " Lo supermercau Marsh, en Ohio (Estaus Unius), fa la primer lectura d'un codigo de barras en o mundo. Va estar un paquet de chicles",
    "eventYear": "1974",
    "image": "https://calendario-cientifico-escolar.github.io/images/personajes/177.png"
}