{
    "lang": "es",
    "year": 2021,
    "month": 6,
    "day": 27,
    "title": "27 de junio de 1915",
    "body": " Naci\u00f3 la f\u00edsica Traude Bernert. Junto a la qu\u00edmica Berta Karlik, identificaron los is\u00f3topos 215, 216 y 218 del \u00e1stato. Tambi\u00e9n descubrieron que este elemento se produc\u00eda durante la descomposici\u00f3n del radio, del torio y del actinio",
    "eventYear": "1915",
    "image": "https://calendario-cientifico-escolar.github.io/images/personajes/178.png"
}