{
    "lang": "en",
    "year": 2021,
    "month": 6,
    "day": 2,
    "title": "June 2, 1911",
    "body": " The main newspapers reported the Gergal-Santa Fe de Mond\u00fajar railway electrification. It was the first electrified broad gauge railway in Spain",
    "eventYear": "1911",
    "image": "https://calendario-cientifico-escolar.github.io/images/personajes/153.png"
}