{
    "lang": "eus",
    "year": 2021,
    "month": 6,
    "day": 30,
    "title": "1905/6/30",
    "body": " Albert Einsteinek \"Mugitzen ari diren gorputzen elektrodinamikari buruz\" izeneko lana argitaratu zuen. Erlatibitate bereziaren teoriaren hasiera izan zen",
    "eventYear": "1905",
    "image": "https://calendario-cientifico-escolar.github.io/images/personajes/181.png"
}