{
    "lang": "cat",
    "year": 2021,
    "month": 6,
    "day": 4,
    "title": "4 de juny de 1927",
    "body": " Va tenir lloc el primer vol comercial de passatgers transatl\u00e0ntic. El viatge es va produir a bord d'un Wright-Bellanca WB-2, des dels Estats Units fins a Alemanya",
    "eventYear": "1927",
    "image": "https://calendario-cientifico-escolar.github.io/images/personajes/155.png"
}