{
    "lang": "es",
    "year": 2021,
    "month": 6,
    "day": 5,
    "title": "5 de junio de 2002",
    "body": " Se present\u00f3 oficialmente la AMIT (Asociaci\u00f3n de Mujeres Investigadoras y Tecn\u00f3logas). Esta asociaci\u00f3n promueve el acceso igualitario de las mujeres a la actividad investigadora en todas las ramas del conocimiento y en el sector tecnol\u00f3gico",
    "eventYear": "2002",
    "image": "https://calendario-cientifico-escolar.github.io/images/personajes/156.png"
}