{
    "lang": "es",
    "year": 2021,
    "month": 6,
    "day": 8,
    "title": "8 de junio de 2021",
    "body": " D\u00eda mundial de los Oc\u00e9anos. Su objetivo es recordarnos el papel que tienen los oc\u00e9anos en la vida cotidiana. Ellos son los pulmones de nuestro planeta y producen la mayor parte del ox\u00edgeno que respiramos",
    "eventYear": "2021",
    "image": "https://calendario-cientifico-escolar.github.io/images/personajes/159.png"
}