{
    "lang": "en",
    "year": 2021,
    "month": 4,
    "day": 15,
    "title": "April 15, 1452",
    "body": " Leonardo da Vinci, Renaissance painter, sculptor, inventor, engineer, and architect, was born",
    "eventYear": "1452",
    "image": "https://calendario-cientifico-escolar.github.io/images/personajes/105.png"
}