{
    "lang": "en",
    "year": 2021,
    "month": 4,
    "day": 4,
    "title": "April 4, 1868",
    "body": " Mathematician Philippa Garrett Fawcett was born. She won a scholarship from the University of Cambridge thanks to her extraordinary success in Mathematical Tripos (1890). She researched fluid dynamics",
    "eventYear": "1868",
    "image": "https://calendario-cientifico-escolar.github.io/images/personajes/94.png"
}