{
    "lang": "astu",
    "year": 2021,
    "month": 4,
    "day": 21,
    "title": "21 d\u2019abril de 1838",
    "body": " Naci\u00f3\u2019l conservacionista John Muir. Defendi\u00f3 l\u2019establecimientu de los parques nacionales Sequonia y Yosemite",
    "eventYear": "1838",
    "image": "https://calendario-cientifico-escolar.github.io/images/personajes/111.png"
}