{
    "lang": "astu",
    "year": 2021,
    "month": 4,
    "day": 24,
    "title": "24 d\u2019abril de 2013",
    "body": " IBM desendolc\u00f3 un rob\u00f3 que combina telepresencia y teunolox\u00edes de realid\u00e1 aumentada p\u2019ayudar en proyeutos d\u2019inxenier\u00eda en fasteres remotes",
    "eventYear": "2013",
    "image": "https://calendario-cientifico-escolar.github.io/images/personajes/114.png"
}