{
    "lang": "cat",
    "year": 2021,
    "month": 1,
    "day": 22,
    "title": "22 de gener de 1909",
    "body": " Va n\u00e9ixer el farmac\u00e8utic i bi\u00f2leg Faustino Cord\u00f3n. Les seves investigacions van estar centrades en el camp de l'evoluci\u00f3. El 1979 va crear la Fundaci\u00f3 per a la Investigaci\u00f3 sobre la Biologia Evolucionista",
    "eventYear": "1909",
    "image": "https://calendario-cientifico-escolar.github.io/images/personajes/22.png"
}