{
    "lang": "es",
    "year": 2021,
    "month": 11,
    "day": 18,
    "title": "18 de noviembre de 2010",
    "body": " ASUR lanz\u00f3 la primera edici\u00f3n del Calendario Cient\u00edfico Escolar (en Ruman\u00eda)",
    "eventYear": "2010",
    "image": "https://calendario-cientifico-escolar.github.io/images/personajes/322.png"
}