{
    "lang": "eus",
    "year": 2021,
    "month": 1,
    "day": 20,
    "title": "1944/1/20",
    "body": " Cogulladako Biologia Esperimentaleko Estazioa sortu zen; gaur egun, Aula Deiko Estazio Esperimentala deitzen zaio. CSICeko institutu horren helburua da nekazaritza-sektorearen lehiakortasuna eta jasangarritasuna hobetzea",
    "eventYear": "1944",
    "image": "https://calendario-cientifico-escolar.github.io/images/personajes/20.png"
}