{
    "lang": "arag",
    "year": 2021,
    "month": 6,
    "day": 23,
    "title": "23 de chunyo de 1912",
    "body": " Naixe lo matematico, lochico y criptoanalista Alan Turing. Fue pionero d'a informatica moderna",
    "eventYear": "1912",
    "image": "https://calendario-cientifico-escolar.github.io/images/personajes/174.png"
}