{
    "lang": "arag",
    "year": 2021,
    "month": 6,
    "day": 25,
    "title": "25 de chunyo de 1866",
    "body": " Naixe Elo\u00edsa D\u00edaz, la primer medica d'America d'o Sud. Como directora d'o Servicio Medico Escolar de Chile, Elo\u00edsa aconsigui\u00f3 la vacunaci\u00f3n de gran parte de l'alumnau y luit\u00f3 contra lo raquitismo y la tuberculosi",
    "eventYear": "1866",
    "image": "https://calendario-cientifico-escolar.github.io/images/personajes/176.png"
}