{
    "lang": "arag",
    "year": 2021,
    "month": 6,
    "day": 9,
    "title": "9 de chunyo de 1812",
    "body": " Naixe l'astronomo Johann Gottfried Galle. Descubri\u00f3 Neptuno seguindo los calculos y indicacions de Urbain Le Verrier",
    "eventYear": "1812",
    "image": "https://calendario-cientifico-escolar.github.io/images/personajes/160.png"
}