{
    "lang": "arag",
    "year": 2021,
    "month": 12,
    "day": 12,
    "title": "12 d'aviento de 1901",
    "body": " Guglielmo Marconi fa la primer comunicaci\u00f3n radiofonica trasatlantica entre Cornuallas (Reino Uniu) y Terranova (Canad\u00e1)",
    "eventYear": "1901",
    "image": "https://calendario-cientifico-escolar.github.io/images/personajes/346.png"
}