{
    "lang": "arag",
    "year": 2021,
    "month": 12,
    "day": 8,
    "title": "8 d'aviento de 2013",
    "body": " En a Universidat de Lyon s'amuestra un nuevo metodo pa extrayer hidrocheno d'as penyas y l'augua. Esta tecnica podr\u00eda convertir-se en una nueva fuent d'enerch\u00eda verde",
    "eventYear": "2013",
    "image": "https://calendario-cientifico-escolar.github.io/images/personajes/342.png"
}