{
    "lang": "es",
    "year": 2021,
    "month": 2,
    "day": 1,
    "title": "1 de febrero de 1949",
    "body": " Entr\u00f3 en funcionamiento el telescopio Hale, el m\u00e1s grande del mundo en ese momento (200 pulgadas)",
    "eventYear": "1949",
    "image": "https://calendario-cientifico-escolar.github.io/images/personajes/32.png"
}