{
    "lang": "es",
    "year": 2021,
    "month": 2,
    "day": 20,
    "title": "20 de febrero de 2016",
    "body": " Investigadores del IGME descubrieron la primera mantis religiosa f\u00f3sil y una de las m\u00e1s antiguas que se conocen en el mundo. Se encontr\u00f3 en el yacimiento de \u00e1mbar de San Just, en Utrillas (Teruel), que tiene una edad de unos 105 millones de a\u00f1os (periodo Cret\u00e1cico)",
    "eventYear": "2016",
    "image": "https://calendario-cientifico-escolar.github.io/images/personajes/51.png"
}