{
    "lang": "es",
    "year": 2021,
    "month": 2,
    "day": 23,
    "title": "23 de febrero de 1879",
    "body": " Naci\u00f3 Agnes Arber, bot\u00e1nica especializada en el estudio de plantas monocotiled\u00f3neas",
    "eventYear": "1879",
    "image": "https://calendario-cientifico-escolar.github.io/images/personajes/54.png"
}