{
    "lang": "es",
    "year": 2021,
    "month": 2,
    "day": 25,
    "title": "25 de febrero de 1869",
    "body": " Naci\u00f3 el qu\u00edmico Phoebus Levene. Descubri\u00f3 la desoxirribosa, uno de los componentes principales del ADN",
    "eventYear": "1869",
    "image": "https://calendario-cientifico-escolar.github.io/images/personajes/56.png"
}