{
    "lang": "es",
    "year": 2021,
    "month": 2,
    "day": 4,
    "title": "4 de febrero de 1896",
    "body": " Thaddeus Cahill solicit\u00f3 la patente del telarmonio, el primer instrumento musical enteramente electr\u00f3nico y polif\u00f3nico. El primer prototipo pesaba 200 toneladas y ten\u00eda una longitud de 18 metros de largo",
    "eventYear": "1896",
    "image": "https://calendario-cientifico-escolar.github.io/images/personajes/35.png"
}